%YAML 1.1
%TAG !u! tag:unity3d.com,2011:
--- !u!74 &7400000
AnimationClip:
  m_ObjectHideFlags: 0
  m_CorrespondingSourceObject: {fileID: 0}
  m_PrefabInstance: {fileID: 0}
  m_PrefabAsset: {fileID: 0}
  m_Name: StickMan_hit
  serializedVersion: 6
  m_Legacy: 0
  m_Compressed: 0
  m_UseHighQualityCurve: 1
  m_RotationCurves:
  - curve:
      serializedVersion: 2
      m_Curve:
      - serializedVersion: 3
        time: 0
        value: {x: 0.34129313, y: 0.62416977, z: 0.5865966, w: -0.38708597}
        inSlope: {x: -0.6063106, y: -3.1278882, z: 2.8300827, w: -0.49692568}
        outSlope: {x: -0.6063106, y: -3.1278882, z: 2.8300827, w: -0.49692568}
        tangentMode: 0
        weightedMode: 0
        inWeight: {x: 0.33333334, y: 0.33333334, z: 0.33333334, w: 0.33333334}
        outWeight: {x: 0.33333334, y: 0.33333334, z: 0.33333334, w: 0.33333334}
      - serializedVersion: 3
        time: 0.033333335
        value: {x: 0.32108277, y: 0.5199068, z: 0.6809327, w: -0.40365016}
        inSlope: {x: 0.031766742, y: -2.3130176, z: 1.5491009, w: -0.6502975}
        outSlope: {x: 0.031766742, y: -2.3130176, z: 1.5491009, w: -0.6502975}
        tangentMode: 0
        weightedMode: 0
        inWeight: {x: 0.33333334, y: 0.33333334, z: 0.33333334, w: 0.33333334}
        outWeight: {x: 0.33333334, y: 0.33333334, z: 0.33333334, w: 0.33333334}
      - serializedVersion: 3
        time: 0.06666667
        value: {x: 0.3434109, y: 0.4699686, z: 0.68987, w: -0.43043914}
        inSlope: {x: 0.6304058, y: -0.8914804, z: -0.11355485, w: -0.6985357}
        outSlope: {x: 0.6304058, y: -0.8914804, z: -0.11355485, w: -0.6985357}
        tangentMode: 0
        weightedMode: 0
        inWeight: {x: 0.33333334, y: 0.33333334, z: 0.33333334, w: 0.33333334}
        outWeight: {x: 0.33333334, y: 0.33333334, z: 0.33333334, w: 0.33333334}
      - serializedVersion: 3
        time: 0.13333334
        value: {x: 0.36850014, y: 0.47517285, z: 0.6586828, w: -0.4522781}
        inSlope: {x: -0.012706071, y: 0.6606004, z: -0.3848559, w: 0.13442339}
        outSlope: {x: -0.012706071, y: 0.6606004, z: -0.3848559, w: 0.13442339}
        tangentMode: 0
        weightedMode: 0
        inWeight: {x: 0.33333334, y: 0.33333334, z: 0.33333334, w: 0.33333334}
        outWeight: {x: 0.33333334, y: 0.33333334, z: 0.33333334, w: 0.33333334}
      - serializedVersion: 3
        time: 0.23333335
        value: {x: 0.3439269, y: 0.5614364, z: 0.63042605, w: -0.41117707}
        inSlope: {x: -0.24518254, y: 0.7105396, z: -0.21477522, w: 0.4299018}
        outSlope: {x: -0.24518254, y: 0.7105396, z: -0.21477522, w: 0.4299018}
        tangentMode: 0
        weightedMode: 0
        inWeight: {x: 0.33333334, y: 0.33333334, z: 0.33333334, w: 0.33333334}
        outWeight: {x: 0.33333334, y: 0.33333334, z: 0.33333334, w: 0.33333334}
      - serializedVersion: 3
        time: 0.5
        value: {x: 0.3325633, y: 0.6452866, z: 0.5930833, w: -0.34822264}
        inSlope: {x: 0.11681915, y: -0.058498953, z: -0.069837585, w: -0.115130216}
        outSlope: {x: 0.11681915, y: -0.058498953, z: -0.069837585, w: -0.115130216}
        tangentMode: 0
        weightedMode: 0
        inWeight: {x: 0.33333334, y: 0.33333334, z: 0.33333334, w: 0.33333334}
        outWeight: {x: 0.33333334, y: 0.33333334, z: 0.33333334, w: 0.33333334}
      - serializedVersion: 3
        time: 0.7666667
        value: {x: 0.34129336, y: 0.62416977, z: 0.5865966, w: -0.3870857}
        inSlope: {x: 0.009753398, y: -0.021754485, z: -0.046759807, w: -0.09787104}
        outSlope: {x: 0.009753398, y: -0.021754485, z: -0.046759807, w: -0.09787104}
        tangentMode: 0
        weightedMode: 0
        inWeight: {x: 0.33333334, y: 0.33333334, z: 0.33333334, w: 0.33333334}
        outWeight: {x: 0.33333334, y: 0.33333334, z: 0.33333334, w: 0.33333334}
      m_PreInfinity: 2
      m_PostInfinity: 2
      m_RotationOrder: 4
    path: Skelet.c
  - curve:
      serializedVersion: 2
      m_Curve:
      - serializedVersion: 3
        time: 0
        value: {x: 0.7071068, y: 0.0000012341343, z: 0.0000012341343, w: 0.7071068}
        inSlope: {x: 0, y: 0, z: 0, w: 0}
        outSlope: {x: 0, y: 0, z: 0, w: 0}
        tangentMode: 0
        weightedMode: 0
        inWeight: {x: 0.33333334, y: 0.33333334, z: 0.33333334, w: 0.33333334}
        outWeight: {x: 0.33333334, y: 0.33333334, z: 0.33333334, w: 0.33333334}
      - serializedVersion: 3
        time: 0.033333335
        value: {x: 0.7071068, y: 0.0000012341343, z: 0.0000012341343, w: 0.7071068}
        inSlope: {x: 0, y: 0, z: 0, w: 0}
        outSlope: {x: 0, y: 0, z: 0, w: 0}
        tangentMode: 0
        weightedMode: 0
        inWeight: {x: 0.33333334, y: 0.33333334, z: 0.33333334, w: 0.33333334}
        outWeight: {x: 0.33333334, y: 0.33333334, z: 0.33333334, w: 0.33333334}
      m_PreInfinity: 2
      m_PostInfinity: 2
      m_RotationOrder: 4
    path: Skelet.c/root
  - curve:
      serializedVersion: 2
      m_Curve:
      - serializedVersion: 3
        time: 0
        value: {x: 0.0009385554, y: -0.7071075, z: -0.00093733135, w: 0.70710486}
        inSlope: {x: 0, y: 0, z: 0, w: 0}
        outSlope: {x: 0, y: 0, z: 0, w: 0}
        tangentMode: 0
        weightedMode: 0
        inWeight: {x: 0.33333334, y: 0.33333334, z: 0.33333334, w: 0.33333334}
        outWeight: {x: 0.33333334, y: 0.33333334, z: 0.33333334, w: 0.33333334}
      - serializedVersion: 3
        time: 0.033333335
        value: {x: 0.0009385554, y: -0.7071075, z: -0.00093733135, w: 0.70710486}
        inSlope: {x: 0, y: 0, z: 0, w: 0}
        outSlope: {x: 0, y: 0, z: 0, w: 0}
        tangentMode: 0
        weightedMode: 0
        inWeight: {x: 0.33333334, y: 0.33333334, z: 0.33333334, w: 0.33333334}
        outWeight: {x: 0.33333334, y: 0.33333334, z: 0.33333334, w: 0.33333334}
      m_PreInfinity: 2
      m_PostInfinity: 2
      m_RotationOrder: 4
    path: Skelet.c/root/pelvis
  - curve:
      serializedVersion: 2
      m_Curve:
      - serializedVersion: 3
        time: 0
        value: {x: 0.036590148, y: -0.00090446963, z: -0.17509498, w: 0.983871}
        inSlope: {x: -0.24755335, y: 0.020438662, z: 0.103044204, w: 0.026326774}
        outSlope: {x: -0.24755335, y: 0.020438662, z: 0.103044204, w: 0.026326774}
        tangentMode: 0
        weightedMode: 0
        inWeight: {x: 0.33333334, y: 0.33333334, z: 0.33333334, w: 0.33333334}
        outWeight: {x: 0.33333334, y: 0.33333334, z: 0.33333334, w: 0.33333334}
      - serializedVersion: 3
        time: 0.033333335
        value: {x: 0.028338369, y: -0.00022318086, z: -0.17166017, w: 0.98474854}
        inSlope: {x: -0.40484947, y: -0.11405566, z: 0.18620767, w: 0.04086524}
        outSlope: {x: -0.40484947, y: -0.11405566, z: 0.18620767, w: 0.04086524}
        tangentMode: 0
        weightedMode: 0
        inWeight: {x: 0.33333334, y: 0.33333334, z: 0.33333334, w: 0.33333334}
        outWeight: {x: 0.33333334, y: 0.33333334, z: 0.33333334, w: 0.33333334}
      - serializedVersion: 3
        time: 0.10000001
        value: {x: -0.0014204108, y: -0.013375336, z: -0.1609537, w: 0.98687035}
        inSlope: {x: -0.24961181, y: -0.060971152, z: -0.021674938, w: -0.0039178147}
        outSlope: {x: -0.24961181, y: -0.060971152, z: -0.021674938, w: -0.0039178147}
        tangentMode: 0
        weightedMode: 0
        inWeight: {x: 0.33333334, y: 0.33333334, z: 0.33333334, w: 0.33333334}
        outWeight: {x: 0.33333334, y: 0.33333334, z: 0.33333334, w: 0.33333334}
      - serializedVersion: 3
        time: 0.26666668
        value: {x: 0.00037227085, y: -0.0074757654, z: -0.17671372, w: 0.98423386}
        inSlope: {x: 0.13571082, y: 0.01620739, z: -0.09218932, w: -0.016559066}
        outSlope: {x: 0.13571082, y: 0.01620739, z: -0.09218932, w: -0.016559066}
        tangentMode: 0
        weightedMode: 0
        inWeight: {x: 0.33333334, y: 0.33333334, z: 0.33333334, w: 0.33333334}
        outWeight: {x: 0.33333334, y: 0.33333334, z: 0.33333334, w: 0.33333334}
      - serializedVersion: 3
        time: 0.53333336
        value: {x: 0.034623075, y: -0.0026962522, z: -0.18596436, w: 0.9819426}
        inSlope: {x: 0.057667166, y: 0.011824597, z: 0.03949639, w: 0.005475278}
        outSlope: {x: 0.057667166, y: 0.011824597, z: 0.03949639, w: 0.005475278}
        tangentMode: 0
        weightedMode: 0
        inWeight: {x: 0.33333334, y: 0.33333334, z: 0.33333334, w: 0.33333334}
        outWeight: {x: 0.33333334, y: 0.33333334, z: 0.33333334, w: 0.33333334}
      - serializedVersion: 3
        time: 0.7666667
        value: {x: 0.03659006, y: -0.0009057344, z: -0.17509492, w: 0.983871}
        inSlope: {x: -0.03209283, y: -0.011248946, z: 0.046619885, w: 0.009537927}
        outSlope: {x: -0.03209283, y: -0.011248946, z: 0.046619885, w: 0.009537927}
        tangentMode: 0
        weightedMode: 0
        inWeight: {x: 0.33333334, y: 0.33333334, z: 0.33333334, w: 0.33333334}
        outWeight: {x: 0.33333334, y: 0.33333334, z: 0.33333334, w: 0.33333334}
      m_PreInfinity: 2
      m_PostInfinity: 2
      m_RotationOrder: 4
    path: Skelet.c/root/pelvis/spine_01
  - curve:
      serializedVersion: 2
      m_Curve:
      - serializedVersion: 3
        time: 0
        value: {x: 0.024207477, y: -0.0058617294, z: 0.02816738, w: 0.9992929}
        inSlope: {x: -0.10206403, y: 0.045636944, z: -0.119046375, w: 0.0056487317}
        outSlope: {x: -0.10206403, y: 0.045636944, z: -0.119046375, w: 0.0056487317}
        tangentMode: 0
        weightedMode: 0
        inWeight: {x: 0.33333334, y: 0.33333334, z: 0.33333334, w: 0.33333334}
        outWeight: {x: 0.33333334, y: 0.33333334, z: 0.33333334, w: 0.33333334}
      - serializedVersion: 3
        time: 0.033333335
        value: {x: 0.020805342, y: -0.004340498, z: 0.024199167, w: 0.9994812}
        inSlope: {x: -0.36976692, y: -0.12041403, z: 0.11273796, w: -0.0003951788}
        outSlope: {x: -0.36976692, y: -0.12041403, z: 0.11273796, w: -0.0003951788}
        tangentMode: 0
        weightedMode: 0
        inWeight: {x: 0.33333334, y: 0.33333334, z: 0.33333334, w: 0.33333334}
        outWeight: {x: 0.33333334, y: 0.33333334, z: 0.33333334, w: 0.33333334}
      - serializedVersion: 3
        time: 0.10000001
        value: {x: -0.017827222, y: -0.01777304, z: 0.04209701, w: 0.9987964}
        inSlope: {x: -0.485117, y: 0.018068615, z: 0.1011823, w: -0.011785626}
        outSlope: {x: -0.485117, y: 0.018068615, z: 0.1011823, w: -0.011785626}
        tangentMode: 0
        weightedMode: 0
        inWeight: {x: 0.33333334, y: 0.33333334, z: 0.33333334, w: 0.33333334}
        outWeight: {x: 0.33333334, y: 0.33333334, z: 0.33333334, w: 0.33333334}
      - serializedVersion: 3
        time: 0.20000002
        value: {x: -0.046350982, y: -0.0026418108, z: 0.04168956, w: 0.9980514}
        inSlope: {x: -0.06736763, y: 0.072302654, z: -0.010168199, w: -0.0023424616}
        outSlope: {x: -0.06736763, y: 0.072302654, z: -0.010168199, w: -0.0023424616}
        tangentMode: 0
        weightedMode: 0
        inWeight: {x: 0.33333334, y: 0.33333334, z: 0.33333334, w: 0.33333334}
        outWeight: {x: 0.33333334, y: 0.33333334, z: 0.33333334, w: 0.33333334}
      - serializedVersion: 3
        time: 0.53333336
        value: {x: 0.0028978386, y: -0.006171159, z: 0.016962646, w: 0.9998329}
        inSlope: {x: 0.1944404, y: -0.013980395, z: 0.023202626, w: -0.0009924165}
        outSlope: {x: 0.1944404, y: -0.013980395, z: 0.023202626, w: -0.0009924165}
        tangentMode: 0
        weightedMode: 0
        inWeight: {x: 0.33333334, y: 0.33333334, z: 0.33333334, w: 0.33333334}
        outWeight: {x: 0.33333334, y: 0.33333334, z: 0.33333334, w: 0.33333334}
      - serializedVersion: 3
        time: 0.7666667
        value: {x: 0.02420744, y: -0.005861577, z: 0.02816741, w: 0.9992929}
        inSlope: {x: 0.016083742, y: -0.015161159, z: 0.048361808, w: -0.0017935022}
        outSlope: {x: 0.016083742, y: -0.015161159, z: 0.048361808, w: -0.0017935022}
        tangentMode: 0
        weightedMode: 0
        inWeight: {x: 0.33333334, y: 0.33333334, z: 0.33333334, w: 0.33333334}
        outWeight: {x: 0.33333334, y: 0.33333334, z: 0.33333334, w: 0.33333334}
      m_PreInfinity: 2
      m_PostInfinity: 2
      m_RotationOrder: 4
    path: Skelet.c/root/pelvis/spine_01/spine_02
  - curve:
      serializedVersion: 2
      m_Curve:
      - serializedVersion: 3
        time: 0
        value: {x: 0.023727609, y: -0.008065726, z: -0.07059271, w: 0.9971904}
        inSlope: {x: -0.10239198, y: 0.041514013, z: -0.118511386, w: -0.0060582156}
        outSlope: {x: -0.10239198, y: 0.041514013, z: -0.118511386, w: -0.0060582156}
        tangentMode: 0
        weightedMode: 0
        inWeight: {x: 0.33333334, y: 0.33333334, z: 0.33333334, w: 0.33333334}
        outWeight: {x: 0.33333334, y: 0.33333334, z: 0.33333334, w: 0.33333334}
      - serializedVersion: 3
        time: 0.033333335
        value: {x: 0.020314543, y: -0.006681925, z: -0.07454309, w: 0.9969885}
        inSlope: {x: -0.37607312, y: -0.10367005, z: 0.109773874, w: 0.0103873005}
        outSlope: {x: -0.37607312, y: -0.10367005, z: 0.109773874, w: 0.0103873005}
        tangentMode: 0
        weightedMode: 0
        inWeight: {x: 0.33333334, y: 0.33333334, z: 0.33333334, w: 0.33333334}
        outWeight: {x: 0.33333334, y: 0.33333334, z: 0.33333334, w: 0.33333334}
      - serializedVersion: 3
        time: 0.10000001
        value: {x: -0.018842477, y: -0.018179165, z: -0.056877486, w: 0.9980378}
        inSlope: {x: -0.48251855, y: 0.036422454, z: 0.10456043, w: -0.0016602883}
        outSlope: {x: -0.48251855, y: 0.036422454, z: 0.10456043, w: -0.0016602883}
        tangentMode: 0
        weightedMode: 0
        inWeight: {x: 0.33333334, y: 0.33333334, z: 0.33333334, w: 0.33333334}
        outWeight: {x: 0.33333334, y: 0.33333334, z: 0.33333334, w: 0.33333334}
      - serializedVersion: 3
        time: 0.20000002
        value: {x: -0.046596576, y: -0.002195486, z: -0.056718525, w: 0.99729985}
        inSlope: {x: -0.06423106, y: 0.07179071, z: -0.008484946, w: -0.0031596413}
        outSlope: {x: -0.06423106, y: 0.07179071, z: -0.008484946, w: -0.0031596413}
        tangentMode: 0
        weightedMode: 0
        inWeight: {x: 0.33333334, y: 0.33333334, z: 0.33333334, w: 0.33333334}
        outWeight: {x: 0.33333334, y: 0.33333334, z: 0.33333334, w: 0.33333334}
      - serializedVersion: 3
        time: 0.53333336
        value: {x: 0.0024406388, y: -0.0076920083, z: -0.08167696, w: 0.9966262}
        inSlope: {x: 0.19361869, y: -0.020437319, z: 0.022530314, w: 0.0012651075}
        outSlope: {x: 0.19361869, y: -0.020437319, z: 0.022530314, w: 0.0012651075}
        tangentMode: 0
        weightedMode: 0
        inWeight: {x: 0.33333334, y: 0.33333334, z: 0.33333334, w: 0.33333334}
        outWeight: {x: 0.33333334, y: 0.33333334, z: 0.33333334, w: 0.33333334}
      - serializedVersion: 3
        time: 0.7666667
        value: {x: 0.023727592, y: -0.008065531, z: -0.07059256, w: 0.9971904}
        inSlope: {x: 0.015757797, y: -0.0055615557, z: 0.048229653, w: 0.0030380462}
        outSlope: {x: 0.015757797, y: -0.0055615557, z: 0.048229653, w: 0.0030380462}
        tangentMode: 0
        weightedMode: 0
        inWeight: {x: 0.33333334, y: 0.33333334, z: 0.33333334, w: 0.33333334}
        outWeight: {x: 0.33333334, y: 0.33333334, z: 0.33333334, w: 0.33333334}
      m_PreInfinity: 2
      m_PostInfinity: 2
      m_RotationOrder: 4
    path: Skelet.c/root/pelvis/spine_01/spine_02/spine_03
  - curve:
      serializedVersion: 2
      m_Curve:
      - serializedVersion: 3
        time: 0
        value: {x: 0.78463143, y: -0.1309204, z: 0.11079168, w: 0.5957672}
        inSlope: {x: -0.4405832, y: -1.3467, z: 1.4283952, w: -0.09481072}
        outSlope: {x: -0.4405832, y: -1.3467, z: 1.4283952, w: -0.09481072}
        tangentMode: 0
        weightedMode: 0
        inWeight: {x: 0.33333334, y: 0.33333334, z: 0.33333334, w: 0.33333334}
        outWeight: {x: 0.33333334, y: 0.33333334, z: 0.33333334, w: 0.33333334}
      - serializedVersion: 3
        time: 0.033333335
        value: {x: 0.7699453, y: -0.1758104, z: 0.15840486, w: 0.59260684}
        inSlope: {x: -0.34952313, y: -0.7387058, z: 0.9105203, w: 0.044805404}
        outSlope: {x: -0.34952313, y: -0.7387058, z: 0.9105203, w: 0.044805404}
        tangentMode: 0
        weightedMode: 0
        inWeight: {x: 0.33333334, y: 0.33333334, z: 0.33333334, w: 0.33333334}
        outWeight: {x: 0.33333334, y: 0.33333334, z: 0.33333334, w: 0.33333334}
      - serializedVersion: 3
        time: 0.10000001
        value: {x: 0.7558649, y: -0.1736513, z: 0.17028937, w: 0.60787743}
        inSlope: {x: -0.15197933, y: 0.31698927, z: -0.21321417, w: 0.3340727}
        outSlope: {x: -0.15197933, y: 0.31698927, z: -0.21321417, w: 0.3340727}
        tangentMode: 0
        weightedMode: 0
        inWeight: {x: 0.33333334, y: 0.33333334, z: 0.33333334, w: 0.33333334}
        outWeight: {x: 0.33333334, y: 0.33333334, z: 0.33333334, w: 0.33333334}
      - serializedVersion: 3
        time: 0.20000002
        value: {x: 0.7421151, y: -0.13767914, z: 0.13040955, w: 0.6428866}
        inSlope: {x: -0.05583642, y: 0.118086, z: -0.22160876, w: 0.13655213}
        outSlope: {x: -0.05583642, y: 0.118086, z: -0.22160876, w: 0.13655213}
        tangentMode: 0
        weightedMode: 0
        inWeight: {x: 0.33333334, y: 0.33333334, z: 0.33333334, w: 0.33333334}
        outWeight: {x: 0.33333334, y: 0.33333334, z: 0.33333334, w: 0.33333334}
      - serializedVersion: 3
        time: 0.36666667
        value: {x: 0.74873674, y: -0.12753895, z: 0.10915229, w: 0.64125896}
        inSlope: {x: 0.07574913, y: 0.168118, z: -0.16457614, w: -0.02709924}
        outSlope: {x: 0.07574913, y: 0.168118, z: -0.16457614, w: -0.02709924}
        tangentMode: 0
        weightedMode: 0
        inWeight: {x: 0.33333334, y: 0.33333334, z: 0.33333334, w: 0.33333334}
        outWeight: {x: 0.33333334, y: 0.33333334, z: 0.33333334, w: 0.33333334}
      - serializedVersion: 3
        time: 0.5666667
        value: {x: 0.76697284, y: -0.123953864, z: 0.11228022, w: 0.6195008}
        inSlope: {x: 0.1762918, y: -0.10167438, z: 0.046875834, w: -0.24753486}
        outSlope: {x: 0.1762918, y: -0.10167438, z: 0.046875834, w: -0.24753486}
        tangentMode: 0
        weightedMode: 0
        inWeight: {x: 0.33333334, y: 0.33333334, z: 0.33333334, w: 0.33333334}
        outWeight: {x: 0.33333334, y: 0.33333334, z: 0.33333334, w: 0.33333334}
      - serializedVersion: 3
        time: 0.7666667
        value: {x: 0.78463095, y: -0.13092056, z: 0.11079192, w: 0.59576774}
        inSlope: {x: 0.0097381985, y: 0.0027085817, z: -0.015588986, w: -0.009319775}
        outSlope: {x: 0.0097381985, y: 0.0027085817, z: -0.015588986, w: -0.009319775}
        tangentMode: 0
        weightedMode: 0
        inWeight: {x: 0.33333334, y: 0.33333334, z: 0.33333334, w: 0.33333334}
        outWeight: {x: 0.33333334, y: 0.33333334, z: 0.33333334, w: 0.33333334}
      m_PreInfinity: 2
      m_PostInfinity: 2
      m_RotationOrder: 4
    path: Skelet.c/root/pelvis/spine_01/spine_02/spine_03/clavicle_l
  - curve:
      serializedVersion: 2
      m_Curve:
      - serializedVersion: 3
        time: 0
        value: {x: 0.38262108, y: 0.29801735, z: -0.04639741, w: 0.8732892}
        inSlope: {x: 0.97695434, y: -5.0716767, z: -0.0063621993, w: 0.78159744}
        outSlope: {x: 0.97695434, y: -5.0716767, z: -0.0063621993, w: 0.78159744}
        tangentMode: 0
        weightedMode: 0
        inWeight: {x: 0.33333334, y: 0.33333334, z: 0.33333334, w: 0.33333334}
        outWeight: {x: 0.33333334, y: 0.33333334, z: 0.33333334, w: 0.33333334}
      - serializedVersion: 3
        time: 0.033333335
        value: {x: 0.41518623, y: 0.12896146, z: -0.046609484, w: 0.8993425}
        inSlope: {x: 0.85538006, y: -3.353509, z: 1.1423856, w: 0.31943765}
        outSlope: {x: 0.85538006, y: -3.353509, z: 1.1423856, w: 0.31943765}
        tangentMode: 0
        weightedMode: 0
        inWeight: {x: 0.33333334, y: 0.33333334, z: 0.33333334, w: 0.33333334}
        outWeight: {x: 0.33333334, y: 0.33333334, z: 0.33333334, w: 0.33333334}
      - serializedVersion: 3
        time: 0.06666667
        value: {x: 0.43964642, y: 0.07445009, z: 0.029761631, w: 0.8945851}
        inSlope: {x: 0.5536615, y: -0.9088592, z: 2.4015465, w: -0.25904056}
        outSlope: {x: 0.5536615, y: -0.9088592, z: 2.4015465, w: -0.25904056}
        tangentMode: 0
        weightedMode: 0
        inWeight: {x: 0.33333334, y: 0.33333334, z: 0.33333334, w: 0.33333334}
        outWeight: {x: 0.33333334, y: 0.33333334, z: 0.33333334, w: 0.33333334}
      - serializedVersion: 3
        time: 0.13333334
        value: {x: 0.4531863, y: 0.083724104, z: 0.17749353, w: 0.86954504}
        inSlope: {x: -0.018639566, y: 0.59213567, z: 1.3230621, w: -0.289152}
        outSlope: {x: -0.018639566, y: 0.59213567, z: 1.3230621, w: -0.289152}
        tangentMode: 0
        weightedMode: 0
        inWeight: {x: 0.33333334, y: 0.33333334, z: 0.33333334, w: 0.33333334}
        outWeight: {x: 0.33333334, y: 0.33333334, z: 0.33333334, w: 0.33333334}
      - serializedVersion: 3
        time: 0.23333335
        value: {x: 0.4546524, y: 0.17008537, z: 0.2025791, w: 0.8504845}
        inSlope: {x: 0.08485303, y: 0.8896899, z: -0.051596764, w: -0.20952167}
        outSlope: {x: 0.08485303, y: 0.8896899, z: -0.051596764, w: -0.20952167}
        tangentMode: 0
        weightedMode: 0
        inWeight: {x: 0.33333334, y: 0.33333334, z: 0.33333334, w: 0.33333334}
        outWeight: {x: 0.33333334, y: 0.33333334, z: 0.33333334, w: 0.33333334}
      - serializedVersion: 3
        time: 0.40000004
        value: {x: 0.43698096, y: 0.27638447, z: 0.123937555, w: 0.8469349}
        inSlope: {x: -0.3580323, y: 0.2856086, z: -1.0082803, w: 0.23546034}
        outSlope: {x: -0.3580323, y: 0.2856086, z: -1.0082803, w: 0.23546034}
        tangentMode: 0
        weightedMode: 0
        inWeight: {x: 0.33333334, y: 0.33333334, z: 0.33333334, w: 0.33333334}
        outWeight: {x: 0.33333334, y: 0.33333334, z: 0.33333334, w: 0.33333334}
      - serializedVersion: 3
        time: 0.53333336
        value: {x: 0.40000755, y: 0.26560256, z: -0.016693654, w: 0.8770237}
        inSlope: {x: -0.2530586, y: -0.26796812, z: -0.79370534, w: 0.1842247}
        outSlope: {x: -0.2530586, y: -0.26796812, z: -0.79370534, w: 0.1842247}
        tangentMode: 0
        weightedMode: 0
        inWeight: {x: 0.33333334, y: 0.33333334, z: 0.33333334, w: 0.33333334}
        outWeight: {x: 0.33333334, y: 0.33333334, z: 0.33333334, w: 0.33333334}
      - serializedVersion: 3
        time: 0.6666667
        value: {x: 0.37543812, y: 0.26923102, z: -0.059883464, w: 0.8848587}
        inSlope: {x: -0.012059258, y: 0.29220074, z: 0.06697906, w: -0.07974295}
        outSlope: {x: -0.012059258, y: 0.29220074, z: 0.06697906, w: -0.07974295}
        tangentMode: 0
        weightedMode: 0
        inWeight: {x: 0.33333334, y: 0.33333334, z: 0.33333334, w: 0.33333334}
        outWeight: {x: 0.33333334, y: 0.33333334, z: 0.33333334, w: 0.33333334}
      - serializedVersion: 3
        time: 0.7666667
        value: {x: 0.38262123, y: 0.29801765, z: -0.046397656, w: 0.87328905}
        inSlope: {x: 0.06812805, y: 0.18358186, z: 0.08312394, w: -0.08707337}
        outSlope: {x: 0.06812805, y: 0.18358186, z: 0.08312394, w: -0.08707337}
        tangentMode: 0
        weightedMode: 0
        inWeight: {x: 0.33333334, y: 0.33333334, z: 0.33333334, w: 0.33333334}
        outWeight: {x: 0.33333334, y: 0.33333334, z: 0.33333334, w: 0.33333334}
      m_PreInfinity: 2
      m_PostInfinity: 2
      m_RotationOrder: 4
    path: Skelet.c/root/pelvis/spine_01/spine_02/spine_03/clavicle_l/upperarm_l
  - curve:
      serializedVersion: 2
      m_Curve:
      - serializedVersion: 3
        time: 0
        value: {x: 0.061290093, y: 0.092799194, z: -0.39247, w: 0.9130165}
        inSlope: {x: 2.4851084, y: 1.0549604, z: -1.5503381, w: -1.1411798}
        outSlope: {x: 2.4851084, y: 1.0549604, z: -1.5503381, w: -1.1411798}
        tangentMode: 0
        weightedMode: 0
        inWeight: {x: 0.33333334, y: 0.33333334, z: 0.33333334, w: 0.33333334}
        outWeight: {x: 0.33333334, y: 0.33333334, z: 0.33333334, w: 0.33333334}
      - serializedVersion: 3
        time: 0.033333335
        value: {x: 0.14412704, y: 0.12796454, z: -0.44414794, w: 0.8749772}
        inSlope: {x: 1.5271951, y: 0.5705437, z: -1.6305183, w: -1.0996503}
        outSlope: {x: 1.5271951, y: 0.5705437, z: -1.6305183, w: -1.0996503}
        tangentMode: 0
        weightedMode: 0
        inWeight: {x: 0.33333334, y: 0.33333334, z: 0.33333334, w: 0.33333334}
        outWeight: {x: 0.33333334, y: 0.33333334, z: 0.33333334, w: 0.33333334}
      - serializedVersion: 3
        time: 0.10000001
        value: {x: 0.16703793, y: 0.12836948, z: -0.54049957, w: 0.8145427}
        inSlope: {x: 0.14498368, y: 0.17383376, z: -0.4938947, w: -0.36709064}
        outSlope: {x: 0.14498368, y: 0.17383376, z: -0.4938947, w: -0.36709064}
        tangentMode: 0
        weightedMode: 0
        inWeight: {x: 0.33333334, y: 0.33333334, z: 0.33333334, w: 0.33333334}
        outWeight: {x: 0.33333334, y: 0.33333334, z: 0.33333334, w: 0.33333334}
      - serializedVersion: 3
        time: 0.13333334
        value: {x: 0.17276868, y: 0.14242436, z: -0.53409755, w: 0.81523377}
        inSlope: {x: 0.24915108, y: 0.6642753, z: 0.67990875, w: 0.2532408}
        outSlope: {x: 0.24915108, y: 0.6642753, z: 0.67990875, w: 0.2532408}
        tangentMode: 0
        weightedMode: 0
        inWeight: {x: 0.33333334, y: 0.33333334, z: 0.33333334, w: 0.33333334}
        outWeight: {x: 0.33333334, y: 0.33333334, z: 0.33333334, w: 0.33333334}
      - serializedVersion: 3
        time: 0.16666667
        value: {x: 0.183648, y: 0.1726545, z: -0.49517232, w: 0.8314254}
        inSlope: {x: 0.23987553, y: 0.6727248, z: 0.7865229, w: 0.29716283}
        outSlope: {x: 0.23987553, y: 0.6727248, z: 0.7865229, w: 0.29716283}
        tangentMode: 0
        weightedMode: 0
        inWeight: {x: 0.33333334, y: 0.33333334, z: 0.33333334, w: 0.33333334}
        outWeight: {x: 0.33333334, y: 0.33333334, z: 0.33333334, w: 0.33333334}
      - serializedVersion: 3
        time: 0.26666668
        value: {x: 0.18859395, y: 0.17415586, z: -0.52525586, w: 0.8113004}
        inSlope: {x: -0.09508722, y: -0.38234603, z: -0.88242674, w: -0.4675323}
        outSlope: {x: -0.09508722, y: -0.38234603, z: -0.88242674, w: -0.4675323}
        tangentMode: 0
        weightedMode: 0
        inWeight: {x: 0.33333334, y: 0.33333334, z: 0.33333334, w: 0.33333334}
        outWeight: {x: 0.33333334, y: 0.33333334, z: 0.33333334, w: 0.33333334}
      - serializedVersion: 3
        time: 0.40000004
        value: {x: 0.16613497, y: 0.1394997, z: -0.58231115, w: 0.78348756}
        inSlope: {x: -0.16752917, y: -0.035270795, z: 0.39291856, w: 0.32633093}
        outSlope: {x: -0.16752917, y: -0.035270795, z: 0.39291856, w: 0.32633093}
        tangentMode: 0
        weightedMode: 0
        inWeight: {x: 0.33333334, y: 0.33333334, z: 0.33333334, w: 0.33333334}
        outWeight: {x: 0.33333334, y: 0.33333334, z: 0.33333334, w: 0.33333334}
      - serializedVersion: 3
        time: 0.5
        value: {x: 0.13696553, y: 0.13059524, z: -0.5082458, w: 0.8401616}
        inSlope: {x: -0.46237504, y: -0.24414796, z: 0.6832088, w: 0.5289916}
        outSlope: {x: -0.46237504, y: -0.24414796, z: 0.6832088, w: 0.5289916}
        tangentMode: 0
        weightedMode: 0
        inWeight: {x: 0.33333334, y: 0.33333334, z: 0.33333334, w: 0.33333334}
        outWeight: {x: 0.33333334, y: 0.33333334, z: 0.33333334, w: 0.33333334}
      - serializedVersion: 3
        time: 0.7666667
        value: {x: 0.06128957, y: 0.092798546, z: -0.3924671, w: 0.91301787}
        inSlope: {x: -0.13365214, y: -0.03072602, z: 0.30172235, w: 0.14417756}
        outSlope: {x: -0.13365214, y: -0.03072602, z: 0.30172235, w: 0.14417756}
        tangentMode: 0
        weightedMode: 0
        inWeight: {x: 0.33333334, y: 0.33333334, z: 0.33333334, w: 0.33333334}
        outWeight: {x: 0.33333334, y: 0.33333334, z: 0.33333334, w: 0.33333334}
      m_PreInfinity: 2
      m_PostInfinity: 2
      m_RotationOrder: 4
    path: Skelet.c/root/pelvis/spine_01/spine_02/spine_03/clavicle_l/upperarm_l/lowerarm_l
  - curve:
      serializedVersion: 2
      m_Curve:
      - serializedVersion: 3
        time: 0
        value: {x: -0.043362614, y: 0.65201753, z: -0.09956127, w: 0.75038683}
        inSlope: {x: 2.255719, y: -0.054883357, z: 5.13321, w: 0.1602119}
        outSlope: {x: 2.255719, y: -0.054883357, z: 5.13321, w: 0.1602119}
        tangentMode: 0
        weightedMode: 0
        inWeight: {x: 0.33333334, y: 0.33333334, z: 0.33333334, w: 0.33333334}
        outWeight: {x: 0.33333334, y: 0.33333334, z: 0.33333334, w: 0.33333334}
      - serializedVersion: 3
        time: 0.033333335
        value: {x: 0.03182802, y: 0.6501881, z: 0.07154574, w: 0.75572723}
        inSlope: {x: 1.2629629, y: -0.07739156, z: 3.2724416, w: 0.027557012}
        outSlope: {x: 1.2629629, y: -0.07739156, z: 3.2724416, w: 0.027557012}
        tangentMode: 0
        weightedMode: 0
        inWeight: {x: 0.33333334, y: 0.33333334, z: 0.33333334, w: 0.33333334}
        outWeight: {x: 0.33333334, y: 0.33333334, z: 0.33333334, w: 0.33333334}
      - serializedVersion: 3
        time: 0.06666667
        value: {x: 0.040834915, y: 0.6468581, z: 0.11860151, w: 0.75222397}
        inSlope: {x: 0.19068253, y: -0.06002962, z: 0.6044966, w: -0.031537414}
        outSlope: {x: 0.19068253, y: -0.06002962, z: 0.6044966, w: -0.031537414}
        tangentMode: 0
        weightedMode: 0
        inWeight: {x: 0.33333334, y: 0.33333334, z: 0.33333334, w: 0.33333334}
        outWeight: {x: 0.33333334, y: 0.33333334, z: 0.33333334, w: 0.33333334}
      - serializedVersion: 3
        time: 0.13333334
        value: {x: 0.035469547, y: 0.6461261, z: 0.059807964, w: 0.7600566}
        inSlope: {x: -0.33238083, y: -0.16036035, z: -1.6978647, w: 0.27231398}
        outSlope: {x: -0.33238083, y: -0.16036035, z: -1.6978647, w: 0.27231398}
        tangentMode: 0
        weightedMode: 0
        inWeight: {x: 0.33333334, y: 0.33333334, z: 0.33333334, w: 0.33333334}
        outWeight: {x: 0.33333334, y: 0.33333334, z: 0.33333334, w: 0.33333334}
      - serializedVersion: 3
        time: 0.16666667
        value: {x: 0.022381468, y: 0.6354954, z: -0.0013454513, w: 0.771779}
        inSlope: {x: -0.3349566, y: -0.38662875, z: -1.4062121, w: 0.35134518}
        outSlope: {x: -0.3349566, y: -0.38662875, z: -1.4062121, w: 0.35134518}
        tangentMode: 0
        weightedMode: 0
        inWeight: {x: 0.33333334, y: 0.33333334, z: 0.33333334, w: 0.33333334}
        outWeight: {x: 0.33333334, y: 0.33333334, z: 0.33333334, w: 0.33333334}
      - serializedVersion: 3
        time: 0.26666668
        value: {x: -0.018130355, y: 0.601751, z: -0.052702814, w: 0.7967367}
        inSlope: {x: -0.6008854, y: -0.12450815, z: -0.10496742, w: 0.07332534}
        outSlope: {x: -0.6008854, y: -0.12450815, z: -0.10496742, w: 0.07332534}
        tangentMode: 0
        weightedMode: 0
        inWeight: {x: 0.33333334, y: 0.33333334, z: 0.33333334, w: 0.33333334}
        outWeight: {x: 0.33333334, y: 0.33333334, z: 0.33333334, w: 0.33333334}
      - serializedVersion: 3
        time: 0.40000004
        value: {x: -0.09186252, y: 0.6124934, z: -0.08146197, w: 0.78088224}
        inSlope: {x: -0.23843604, y: 0.1982742, z: -0.25350115, w: -0.20759216}
        outSlope: {x: -0.23843604, y: 0.1982742, z: -0.25350115, w: -0.20759216}
        tangentMode: 0
        weightedMode: 0
        inWeight: {x: 0.33333334, y: 0.33333334, z: 0.33333334, w: 0.33333334}
        outWeight: {x: 0.33333334, y: 0.33333334, z: 0.33333334, w: 0.33333334}
      - serializedVersion: 3
        time: 0.5
        value: {x: -0.084203295, y: 0.63734436, z: -0.08242363, w: 0.7615171}
        inSlope: {x: 0.3127579, y: 0.27771324, z: 0.28076476, w: -0.1690999}
        outSlope: {x: 0.3127579, y: 0.27771324, z: 0.28076476, w: -0.1690999}
        tangentMode: 0
        weightedMode: 0
        inWeight: {x: 0.33333334, y: 0.33333334, z: 0.33333334, w: 0.33333334}
        outWeight: {x: 0.33333334, y: 0.33333334, z: 0.33333334, w: 0.33333334}
      - serializedVersion: 3
        time: 0.6
        value: {x: -0.055483535, y: 0.65387374, z: -0.064828314, w: 0.7517766}
        inSlope: {x: 0.121623755, y: 0.024099676, z: -0.12976274, w: -0.023366526}
        outSlope: {x: 0.121623755, y: 0.024099676, z: -0.12976274, w: -0.023366526}
        tangentMode: 0
        weightedMode: 0
        inWeight: {x: 0.33333334, y: 0.33333334, z: 0.33333334, w: 0.33333334}
        outWeight: {x: 0.33333334, y: 0.33333334, z: 0.33333334, w: 0.33333334}
      - serializedVersion: 3
        time: 0.7666667
        value: {x: -0.04335975, y: 0.65201783, z: -0.0995621, w: 0.7503866}
        inSlope: {x: 0.03243738, y: -0.014516103, z: -0.1688713, w: -0.0072562634}
        outSlope: {x: 0.03243738, y: -0.014516103, z: -0.1688713, w: -0.0072562634}
        tangentMode: 0
        weightedMode: 0
        inWeight: {x: 0.33333334, y: 0.33333334, z: 0.33333334, w: 0.33333334}
        outWeight: {x: 0.33333334, y: 0.33333334, z: 0.33333334, w: 0.33333334}
      m_PreInfinity: 2
      m_PostInfinity: 2
      m_RotationOrder: 4
    path: Skelet.c/root/pelvis/spine_01/spine_02/spine_03/clavicle_l/upperarm_l/lowerarm_l/hand_l
  - curve:
      serializedVersion: 2
      m_Curve:
      - serializedVersion: 3
        time: 0
        value: {x: 0.06816424, y: -0.17812352, z: 0.5909732, w: 0.7838217}
        inSlope: {x: 0, y: 0, z: 0, w: 0}
        outSlope: {x: 0, y: 0, z: 0, w: 0}
        tangentMode: 0
        weightedMode: 0
        inWeight: {x: 0.33333334, y: 0.33333334, z: 0.33333334, w: 0.33333334}
        outWeight: {x: 0.33333334, y: 0.33333334, z: 0.33333334, w: 0.33333334}
      - serializedVersion: 3
        time: 0.033333335
        value: {x: 0.06816424, y: -0.17812352, z: 0.5909732, w: 0.7838217}
        inSlope: {x: 0, y: 0, z: 0, w: 0}
        outSlope: {x: 0, y: 0, z: 0, w: 0}
        tangentMode: 0
        weightedMode: 0
        inWeight: {x: 0.33333334, y: 0.33333334, z: 0.33333334, w: 0.33333334}
        outWeight: {x: 0.33333334, y: 0.33333334, z: 0.33333334, w: 0.33333334}
      m_PreInfinity: 2
      m_PostInfinity: 2
      m_RotationOrder: 4
    path: Skelet.c/root/pelvis/spine_01/spine_02/spine_03/clavicle_l/upperarm_l/lowerarm_l/hand_l/index_01_l
  - curve:
      serializedVersion: 2
      m_Curve:
      - serializedVersion: 3
        time: 0
        value: {x: -0.5027085, y: 0.7905285, z: -0.08760439, w: -0.33863628}
        inSlope: {x: 0, y: 0, z: 0, w: 0}
        outSlope: {x: 0, y: 0, z: 0, w: 0}
        tangentMode: 0
        weightedMode: 0
        inWeight: {x: 0.33333334, y: 0.33333334, z: 0.33333334, w: 0.33333334}
        outWeight: {x: 0.33333334, y: 0.33333334, z: 0.33333334, w: 0.33333334}
      - serializedVersion: 3
        time: 0.033333335
        value: {x: -0.5027085, y: 0.7905285, z: -0.08760439, w: -0.33863628}
        inSlope: {x: 0, y: 0, z: 0, w: 0}
        outSlope: {x: 0, y: 0, z: 0, w: 0}
        tangentMode: 0
        weightedMode: 0
        inWeight: {x: 0.33333334, y: 0.33333334, z: 0.33333334, w: 0.33333334}
        outWeight: {x: 0.33333334, y: 0.33333334, z: 0.33333334, w: 0.33333334}
      m_PreInfinity: 2
      m_PostInfinity: 2
      m_RotationOrder: 4
    path: Skelet.c/root/pelvis/spine_01/spine_02/spine_03/clavicle_l/upperarm_l/lowerarm_l/hand_l/thumb_01_l
  - curve:
      serializedVersion: 2
      m_Curve:
      - serializedVersion: 3
        time: 0
        value: {x: 0.09361675, y: -0.62232643, z: 0.77131206, w: 0.09499229}
        inSlope: {x: -0.6796657, y: 0.12969911, z: 0.23500977, w: -0.5320669}
        outSlope: {x: -0.6796657, y: 0.12969911, z: 0.23500977, w: -0.5320669}
        tangentMode: 0
        weightedMode: 0
        inWeight: {x: 0.33333334, y: 0.33333334, z: 0.33333334, w: 0.33333334}
        outWeight: {x: 0.33333334, y: 0.33333334, z: 0.33333334, w: 0.33333334}
      - serializedVersion: 3
        time: 0.033333335
        value: {x: 0.07096122, y: -0.61800313, z: 0.7791457, w: 0.077256724}
        inSlope: {x: 0.11803305, y: 0.027841333, z: -0.0013160706, w: 0.0698787}
        outSlope: {x: 0.11803305, y: 0.027841333, z: -0.0013160706, w: 0.0698787}
        tangentMode: 0
        weightedMode: 0
        inWeight: {x: 0.33333334, y: 0.33333334, z: 0.33333334, w: 0.33333334}
        outWeight: {x: 0.33333334, y: 0.33333334, z: 0.33333334, w: 0.33333334}
      - serializedVersion: 3
        time: 0.06666667
        value: {x: 0.10148562, y: -0.62047035, z: 0.7712243, w: 0.09965087}
        inSlope: {x: 0.48602304, y: -0.29325214, z: -0.34190384, w: 0.39807466}
        outSlope: {x: 0.48602304, y: -0.29325214, z: -0.34190384, w: 0.39807466}
        tangentMode: 0
        weightedMode: 0
        inWeight: {x: 0.33333334, y: 0.33333334, z: 0.33333334, w: 0.33333334}
        outWeight: {x: 0.33333334, y: 0.33333334, z: 0.33333334, w: 0.33333334}
      - serializedVersion: 3
        time: 0.10000001
        value: {x: 0.10336276, y: -0.6375533, z: 0.7563521, w: 0.10379504}
        inSlope: {x: -0.28261757, y: -0.5593434, z: -0.43789923, w: -0.0013889559}
        outSlope: {x: -0.28261757, y: -0.5593434, z: -0.43789923, w: -0.0013889559}
        tangentMode: 0
        weightedMode: 0
        inWeight: {x: 0.33333334, y: 0.33333334, z: 0.33333334, w: 0.33333334}
        outWeight: {x: 0.33333334, y: 0.33333334, z: 0.33333334, w: 0.33333334}
      - serializedVersion: 3
        time: 0.13333334
        value: {x: 0.08264445, y: -0.6577599, z: 0.74203104, w: 0.09955827}
        inSlope: {x: -0.5239722, y: -0.10035129, z: -0.028635263, w: 0.022239424}
        outSlope: {x: -0.5239722, y: -0.10035129, z: -0.028635263, w: 0.022239424}
        tangentMode: 0
        weightedMode: 0
        inWeight: {x: 0.33333334, y: 0.33333334, z: 0.33333334, w: 0.33333334}
        outWeight: {x: 0.33333334, y: 0.33333334, z: 0.33333334, w: 0.33333334}
      - serializedVersion: 3
        time: 0.20000002
        value: {x: 0.07064058, y: -0.62023467, z: 0.77239406, w: 0.11715906}
        inSlope: {x: 0.20894353, y: 0.63748586, z: 0.42798567, w: 0.43719766}
        outSlope: {x: 0.20894353, y: 0.63748586, z: 0.42798567, w: 0.43719766}
        tangentMode: 0
        weightedMode: 0
        inWeight: {x: 0.33333334, y: 0.33333334, z: 0.33333334, w: 0.33333334}
        outWeight: {x: 0.33333334, y: 0.33333334, z: 0.33333334, w: 0.33333334}
      - serializedVersion: 3
        time: 0.26666668
        value: {x: 0.096384935, y: -0.59529537, z: 0.7821154, w: 0.15693633}
        inSlope: {x: 0.30918083, y: -0.043331094, z: -0.20438613, w: 0.663414}
        outSlope: {x: 0.30918083, y: -0.043331094, z: -0.20438613, w: 0.663414}
        tangentMode: 0
        weightedMode: 0
        inWeight: {x: 0.33333334, y: 0.33333334, z: 0.33333334, w: 0.33333334}
        outWeight: {x: 0.33333334, y: 0.33333334, z: 0.33333334, w: 0.33333334}
      - serializedVersion: 3
        time: 0.33333334
        value: {x: 0.097016476, y: -0.6121752, z: 0.7611721, w: 0.19090916}
        inSlope: {x: -0.33215094, y: -0.15287699, z: -0.10542602, w: 0.099201284}
        outSlope: {x: -0.33215094, y: -0.15287699, z: -0.10542602, w: 0.099201284}
        tangentMode: 0
        weightedMode: 0
        inWeight: {x: 0.33333334, y: 0.33333334, z: 0.33333334, w: 0.33333334}
        outWeight: {x: 0.33333334, y: 0.33333334, z: 0.33333334, w: 0.33333334}
      - serializedVersion: 3
        time: 0.40000004
        value: {x: 0.07363471, y: -0.61118686, z: 0.7687257, w: 0.17346294}
        inSlope: {x: -0.06315453, y: 0.13339964, z: 0.18209867, w: -0.30574107}
        outSlope: {x: -0.06315453, y: 0.13339964, z: 0.18209867, w: -0.30574107}
        tangentMode: 0
        weightedMode: 0
        inWeight: {x: 0.33333334, y: 0.33333334, z: 0.33333334, w: 0.33333334}
        outWeight: {x: 0.33333334, y: 0.33333334, z: 0.33333334, w: 0.33333334}
      - serializedVersion: 3
        time: 0.5
        value: {x: 0.08858093, y: -0.60503036, z: 0.7786677, w: 0.14060026}
        inSlope: {x: 0.08041647, y: -0.020353513, z: 0.06383835, w: -0.4952708}
        outSlope: {x: 0.08041647, y: -0.020353513, z: 0.06383835, w: -0.4952708}
        tangentMode: 0
        weightedMode: 0
        inWeight: {x: 0.33333334, y: 0.33333334, z: 0.33333334, w: 0.33333334}
        outWeight: {x: 0.33333334, y: 0.33333334, z: 0.33333334, w: 0.33333334}
      - serializedVersion: 3
        time: 0.6333334
        value: {x: 0.086576864, y: -0.61684257, z: 0.7769068, w: 0.0917914}
        inSlope: {x: 0.026785906, y: -0.122914895, z: -0.091187954, w: -0.076278955}
        outSlope: {x: 0.026785906, y: -0.122914895, z: -0.091187954, w: -0.076278955}
        tangentMode: 0
        weightedMode: 0
        inWeight: {x: 0.33333334, y: 0.33333334, z: 0.33333334, w: 0.33333334}
        outWeight: {x: 0.33333334, y: 0.33333334, z: 0.33333334, w: 0.33333334}
      - serializedVersion: 3
        time: 0.7666667
        value: {x: 0.09352728, y: -0.62224376, z: 0.7713951, w: 0.0949472}
        inSlope: {x: 0.010352424, y: 0.060031366, z: 0.04510399, w: 0.01782237}
        outSlope: {x: 0.010352424, y: 0.060031366, z: 0.04510399, w: 0.01782237}
        tangentMode: 0
        weightedMode: 0
        inWeight: {x: 0.33333334, y: 0.33333334, z: 0.33333334, w: 0.33333334}
        outWeight: {x: 0.33333334, y: 0.33333334, z: 0.33333334, w: 0.33333334}
      m_PreInfinity: 2
      m_PostInfinity: 2
      m_RotationOrder: 4
    path: Skelet.c/root/pelvis/spine_01/spine_02/spine_03/clavicle_r
  - curve:
      serializedVersion: 2
      m_Curve:
      - serializedVersion: 3
        time: 0
        value: {x: 0.39616805, y: 0.11373622, z: 0.036657054, w: 0.91036874}
        inSlope: {x: -2.3495219, y: 1.6559929, z: 0.737743, w: 0.6176358}
        outSlope: {x: -2.3495219, y: 1.6559929, z: 0.737743, w: 0.6176358}
        tangentMode: 0
        weightedMode: 0
        inWeight: {x: 0.33333334, y: 0.33333334, z: 0.33333334, w: 0.33333334}
        outWeight: {x: 0.33333334, y: 0.33333334, z: 0.33333334, w: 0.33333334}
      - serializedVersion: 3
        time: 0.033333335
        value: {x: 0.31785065, y: 0.16893598, z: 0.06124849, w: 0.9309566}
        inSlope: {x: -3.4099708, y: 1.0418892, z: 1.8775187, w: 0.6672799}
        outSlope: {x: -3.4099708, y: 1.0418892, z: 1.8775187, w: 0.6672799}
        tangentMode: 0
        weightedMode: 0
        inWeight: {x: 0.33333334, y: 0.33333334, z: 0.33333334, w: 0.33333334}
        outWeight: {x: 0.33333334, y: 0.33333334, z: 0.33333334, w: 0.33333334}
      - serializedVersion: 3
        time: 0.06666667
        value: {x: 0.16883667, y: 0.1831955, z: 0.16182497, w: 0.9548541}
        inSlope: {x: -3.3052945, y: -1.7757652, z: 2.4507813, w: 0.5591708}
        outSlope: {x: -3.3052945, y: -1.7757652, z: 2.4507813, w: 0.5591708}
        tangentMode: 0
        weightedMode: 0
        inWeight: {x: 0.33333334, y: 0.33333334, z: 0.33333334, w: 0.33333334}
        outWeight: {x: 0.33333334, y: 0.33333334, z: 0.33333334, w: 0.33333334}
      - serializedVersion: 3
        time: 0.10000001
        value: {x: 0.097497664, y: 0.050551623, z: 0.22463393, w: 0.96823466}
        inSlope: {x: -0.9399562, y: -5.103686, z: 0.99537945, w: 0.0019517094}
        outSlope: {x: -0.9399562, y: -5.103686, z: 0.99537945, w: 0.0019517094}
        tangentMode: 0
        weightedMode: 0
        inWeight: {x: 0.33333334, y: 0.33333334, z: 0.33333334, w: 0.33333334}
        outWeight: {x: 0.33333334, y: 0.33333334, z: 0.33333334, w: 0.33333334}
      - serializedVersion: 3
        time: 0.13333334
        value: {x: 0.10617291, y: -0.15705022, z: 0.22818361, w: 0.9549842}
        inSlope: {x: 0.19401807, y: -5.3247986, z: -0.6364784, w: -0.59752023}
        outSlope: {x: 0.19401807, y: -5.3247986, z: -0.6364784, w: -0.59752023}
        tangentMode: 0
        weightedMode: 0
        inWeight: {x: 0.33333334, y: 0.33333334, z: 0.33333334, w: 0.33333334}
        outWeight: {x: 0.33333334, y: 0.33333334, z: 0.33333334, w: 0.33333334}
      - serializedVersion: 3
        time: 0.16666667
        value: {x: 0.1104322, y: -0.30443493, z: 0.18220204, w: 0.9284}
        inSlope: {x: 0.1037513, y: -3.0930457, z: -1.2423887, w: -0.62516385}
        outSlope: {x: 0.1037513, y: -3.0930457, z: -1.2423887, w: -0.62516385}
        tangentMode: 0
        weightedMode: 0
        inWeight: {x: 0.33333334, y: 0.33333334, z: 0.33333334, w: 0.33333334}
        outWeight: {x: 0.33333334, y: 0.33333334, z: 0.33333334, w: 0.33333334}
      - serializedVersion: 3
        time: 0.20000002
        value: {x: 0.113089666, y: -0.3632533, z: 0.14535768, w: 0.9133066}
        inSlope: {x: 0.2964079, y: -0.8555966, z: -0.8508214, w: -0.20579061}
        outSlope: {x: 0.2964079, y: -0.8555966, z: -0.8508214, w: -0.20579061}
        tangentMode: 0
        weightedMode: 0
        inWeight: {x: 0.33333334, y: 0.33333334, z: 0.33333334, w: 0.33333334}
        outWeight: {x: 0.33333334, y: 0.33333334, z: 0.33333334, w: 0.33333334}
      - serializedVersion: 3
        time: 0.26666668
        value: {x: 0.17139816, y: -0.3122767, z: 0.121034935, w: 0.9265293}
        inSlope: {x: 1.5818038, y: 1.7433155, z: -0.08311351, w: 0.27034435}
        outSlope: {x: 1.5818038, y: 1.7433155, z: -0.08311351, w: 0.27034435}
        tangentMode: 0
        weightedMode: 0
        inWeight: {x: 0.33333334, y: 0.33333334, z: 0.33333334, w: 0.33333334}
        outWeight: {x: 0.33333334, y: 0.33333334, z: 0.33333334, w: 0.33333334}
      - serializedVersion: 3
        time: 0.33333334
        value: {x: 0.29809543, y: -0.17513847, z: 0.11275332, w: 0.93153226}
        inSlope: {x: 1.7031738, y: 2.0015233, z: -0.5233636, w: -0.09364844}
        outSlope: {x: 1.7031738, y: 2.0015233, z: -0.5233636, w: -0.09364844}
        tangentMode: 0
        weightedMode: 0
        inWeight: {x: 0.33333334, y: 0.33333334, z: 0.33333334, w: 0.33333334}
        outWeight: {x: 0.33333334, y: 0.33333334, z: 0.33333334, w: 0.33333334}
      - serializedVersion: 3
        time: 0.43333337
        value: {x: 0.41010702, y: 0.009006281, z: 0.022778554, w: 0.9117085}
        inSlope: {x: 0.45376855, y: 1.8594129, z: -0.72795784, w: -0.19568773}
        outSlope: {x: 0.45376855, y: 1.8594129, z: -0.72795784, w: -0.19568773}
        tangentMode: 0
        weightedMode: 0
        inWeight: {x: 0.33333334, y: 0.33333334, z: 0.33333334, w: 0.33333334}
        outWeight: {x: 0.33333334, y: 0.33333334, z: 0.33333334, w: 0.33333334}
      - serializedVersion: 3
        time: 0.53333336
        value: {x: 0.3944839, y: 0.17431548, z: -0.027985357, w: 0.90178347}
        inSlope: {x: -0.2785445, y: 1.2054912, z: -0.4155122, w: -0.11081627}
        outSlope: {x: -0.2785445, y: 1.2054912, z: -0.4155122, w: -0.11081627}
        tangentMode: 0
        weightedMode: 0
        inWeight: {x: 0.33333334, y: 0.33333334, z: 0.33333334, w: 0.33333334}
        outWeight: {x: 0.33333334, y: 0.33333334, z: 0.33333334, w: 0.33333334}
      - serializedVersion: 3
        time: 0.6666667
        value: {x: 0.3886006, y: 0.18596824, z: -0.014791977, w: 0.9023229}
        inSlope: {x: 0.06699799, y: -0.68068737, z: 0.4859116, w: 0.11626304}
        outSlope: {x: 0.06699799, y: -0.68068737, z: 0.4859116, w: 0.11626304}
        tangentMode: 0
        weightedMode: 0
        inWeight: {x: 0.33333334, y: 0.33333334, z: 0.33333334, w: 0.33333334}
        outWeight: {x: 0.33333334, y: 0.33333334, z: 0.33333334, w: 0.33333334}
      - serializedVersion: 3
        time: 0.7666667
        value: {x: 0.39605668, y: 0.11369355, z: 0.03653308, w: 0.9104275}
        inSlope: {x: 0.033806533, y: -0.62423354, z: 0.4771881, w: 0.05547698}
        outSlope: {x: 0.033806533, y: -0.62423354, z: 0.4771881, w: 0.05547698}
        tangentMode: 0
        weightedMode: 0
        inWeight: {x: 0.33333334, y: 0.33333334, z: 0.33333334, w: 0.33333334}
        outWeight: {x: 0.33333334, y: 0.33333334, z: 0.33333334, w: 0.33333334}
      m_PreInfinity: 2
      m_PostInfinity: 2
      m_RotationOrder: 4
    path: Skelet.c/root/pelvis/spine_01/spine_02/spine_03/clavicle_r/upperarm_r
  - curve:
      serializedVersion: 2
      m_Curve:
      - serializedVersion: 3
        time: 0
        value: {x: 0.13594271, y: -0.23390424, z: 0.31251281, w: 0.91057354}
        inSlope: {x: 0.5296786, y: -2.6701515, z: 0.6686782, w: -1.1630433}
        outSlope: {x: 0.5296786, y: -2.6701515, z: 0.6686782, w: -1.1630433}
        tangentMode: 0
        weightedMode: 0
        inWeight: {x: 0.33333334, y: 0.33333334, z: 0.33333334, w: 0.33333334}
        outWeight: {x: 0.33333334, y: 0.33333334, z: 0.33333334, w: 0.33333334}
      - serializedVersion: 3
        time: 0.033333335
        value: {x: 0.15359867, y: -0.3229093, z: 0.3348021, w: 0.8718054}
        inSlope: {x: 0.50980633, y: -1.7618428, z: 1.3709391, w: -1.2481775}
        outSlope: {x: 0.50980633, y: -1.7618428, z: 1.3709391, w: -1.2481775}
        tangentMode: 0
        weightedMode: 0
        inWeight: {x: 0.33333334, y: 0.33333334, z: 0.33333334, w: 0.33333334}
        outWeight: {x: 0.33333334, y: 0.33333334, z: 0.33333334, w: 0.33333334}
      - serializedVersion: 3
        time: 0.06666667
        value: {x: 0.1699298, y: -0.35136044, z: 0.40390876, w: 0.8273617}
        inSlope: {x: 0.3258533, y: 0.539423, z: 1.8461666, w: -0.73262745}
        outSlope: {x: 0.3258533, y: 0.539423, z: 1.8461666, w: -0.73262745}
        tangentMode: 0
        weightedMode: 0
        inWeight: {x: 0.33333334, y: 0.33333334, z: 0.33333334, w: 0.33333334}
        outWeight: {x: 0.33333334, y: 0.33333334, z: 0.33333334, w: 0.33333334}
      - serializedVersion: 3
        time: 0.10000001
        value: {x: 0.17532222, y: -0.28694776, z: 0.45787987, w: 0.8229636}
        inSlope: {x: 0.11180161, y: 1.8581523, z: 1.5977046, w: -0.25898695}
        outSlope: {x: 0.11180161, y: 1.8581523, z: 1.5977046, w: -0.25898695}
        tangentMode: 0
        weightedMode: 0
        inWeight: {x: 0.33333334, y: 0.33333334, z: 0.33333334, w: 0.33333334}
        outWeight: {x: 0.33333334, y: 0.33333334, z: 0.33333334, w: 0.33333334}
      - serializedVersion: 3
        time: 0.13333334
        value: {x: 0.17738324, y: -0.22748362, z: 0.5104224, w: 0.8100959}
        inSlope: {x: 0.11384458, y: 1.2582424, z: 1.158004, w: -0.3538594}
        outSlope: {x: 0.11384458, y: 1.2582424, z: 1.158004, w: -0.3538594}
        tangentMode: 0
        weightedMode: 0
        inWeight: {x: 0.33333334, y: 0.33333334, z: 0.33333334, w: 0.33333334}
        outWeight: {x: 0.33333334, y: 0.33333334, z: 0.33333334, w: 0.33333334}
      - serializedVersion: 3
        time: 0.20000002
        value: {x: 0.186424, y: -0.21220225, z: 0.5307702, w: 0.79906154}
        inSlope: {x: 0.008404456, y: -0.69201255, z: -0.52146614, w: 0.13922276}
        outSlope: {x: 0.008404456, y: -0.69201255, z: -0.52146614, w: 0.13922276}
        tangentMode: 0
        weightedMode: 0
        inWeight: {x: 0.33333334, y: 0.33333334, z: 0.33333334, w: 0.33333334}
        outWeight: {x: 0.33333334, y: 0.33333334, z: 0.33333334, w: 0.33333334}
      - serializedVersion: 3
        time: 0.26666668
        value: {x: 0.17289458, y: -0.3143357, z: 0.4432423, w: 0.8214845}
        inSlope: {x: -0.3915963, y: -2.0562475, z: -1.8628721, w: 0.28083625}
        outSlope: {x: -0.3915963, y: -2.0562475, z: -1.8628721, w: 0.28083625}
        tangentMode: 0
        weightedMode: 0
        inWeight: {x: 0.33333334, y: 0.33333334, z: 0.33333334, w: 0.33333334}
        outWeight: {x: 0.33333334, y: 0.33333334, z: 0.33333334, w: 0.33333334}
      - serializedVersion: 3
        time: 0.3
        value: {x: 0.15736574, y: -0.38628227, z: 0.37612426, w: 0.8273769}
        inSlope: {x: -0.52053094, y: -1.921746, z: -1.9632843, w: 0.11572928}
        outSlope: {x: -0.52053094, y: -1.921746, z: -1.9632843, w: 0.11572928}
        tangentMode: 0
        weightedMode: 0
        inWeight: {x: 0.33333334, y: 0.33333334, z: 0.33333334, w: 0.33333334}
        outWeight: {x: 0.33333334, y: 0.33333334, z: 0.33333334, w: 0.33333334}
      - serializedVersion: 3
        time: 0.33333334
        value: {x: 0.13819252, y: -0.4424521, z: 0.3123567, w: 0.8291998}
        inSlope: {x: -0.5574348, y: -1.0100154, z: -1.5870001, w: 0.1992345}
        outSlope: {x: -0.5574348, y: -1.0100154, z: -1.5870001, w: 0.1992345}
        tangentMode: 0
        weightedMode: 0
        inWeight: {x: 0.33333334, y: 0.33333334, z: 0.33333334, w: 0.33333334}
        outWeight: {x: 0.33333334, y: 0.33333334, z: 0.33333334, w: 0.33333334}
      - serializedVersion: 3
        time: 0.40000004
        value: {x: 0.10912202, y: -0.42260078, z: 0.25620905, w: 0.862472}
        inSlope: {x: -0.18284416, y: 1.242428, z: -0.07576953, w: 0.64182466}
        outSlope: {x: -0.18284416, y: 1.242428, z: -0.07576953, w: 0.64182466}
        tangentMode: 0
        weightedMode: 0
        inWeight: {x: 0.33333334, y: 0.33333334, z: 0.33333334, w: 0.33333334}
        outWeight: {x: 0.33333334, y: 0.33333334, z: 0.33333334, w: 0.33333334}
      - serializedVersion: 3
        time: 0.4666667
        value: {x: 0.11541248, y: -0.3191242, z: 0.2889641, w: 0.89517564}
        inSlope: {x: 0.29181546, y: 1.3571255, z: 0.80168545, w: 0.19480619}
        outSlope: {x: 0.29181546, y: 1.3571255, z: 0.80168545, w: 0.19480619}
        tangentMode: 0
        weightedMode: 0
        inWeight: {x: 0.33333334, y: 0.33333334, z: 0.33333334, w: 0.33333334}
        outWeight: {x: 0.33333334, y: 0.33333334, z: 0.33333334, w: 0.33333334}
      - serializedVersion: 3
        time: 0.5666667
        value: {x: 0.14450766, y: -0.22665474, z: 0.36366138, w: 0.8919056}
        inSlope: {x: 0.14986213, y: 0.41931897, z: 0.29588592, w: -0.03223565}
        outSlope: {x: 0.14986213, y: 0.41931897, z: 0.29588592, w: -0.03223565}
        tangentMode: 0
        weightedMode: 0
        inWeight: {x: 0.33333334, y: 0.33333334, z: 0.33333334, w: 0.33333334}
        outWeight: {x: 0.33333334, y: 0.33333334, z: 0.33333334, w: 0.33333334}
      - serializedVersion: 3
        time: 0.73333335
        value: {x: 0.13877794, y: -0.23237827, z: 0.32051438, w: 0.90775084}
        inSlope: {x: -0.09982961, y: -0.07693651, z: -0.3081658, w: 0.10538939}
        outSlope: {x: -0.09982961, y: -0.07693651, z: -0.3081658, w: 0.10538939}
        tangentMode: 0
        weightedMode: 0
        inWeight: {x: 0.33333334, y: 0.33333334, z: 0.33333334, w: 0.33333334}
        outWeight: {x: 0.33333334, y: 0.33333334, z: 0.33333334, w: 0.33333334}
      - serializedVersion: 3
        time: 0.7666667
        value: {x: 0.13595974, y: -0.2338969, z: 0.31256172, w: 0.9105561}
        inSlope: {x: -0.08454584, y: -0.045558624, z: -0.23857962, w: 0.08415692}
        outSlope: {x: -0.08454584, y: -0.045558624, z: -0.23857962, w: 0.08415692}
        tangentMode: 0
        weightedMode: 0
        inWeight: {x: 0.33333334, y: 0.33333334, z: 0.33333334, w: 0.33333334}
        outWeight: {x: 0.33333334, y: 0.33333334, z: 0.33333334, w: 0.33333334}
      m_PreInfinity: 2
      m_PostInfinity: 2
      m_RotationOrder: 4
    path: Skelet.c/root/pelvis/spine_01/spine_02/spine_03/clavicle_r/upperarm_r/lowerarm_r
  - curve:
      serializedVersion: 2
      m_Curve:
      - serializedVersion: 3
        time: 0
        value: {x: -0.124260746, y: -0.7411446, z: 0.25086588, w: 0.6101887}
        inSlope: {x: 0.25094256, y: 1.2989758, z: -0.8355617, w: 1.8154781}
        outSlope: {x: 0.25094256, y: 1.2989758, z: -0.8355617, w: 1.8154781}
        tangentMode: 0
        weightedMode: 0
        inWeight: {x: 0.33333334, y: 0.33333334, z: 0.33333334, w: 0.33333334}
        outWeight: {x: 0.33333334, y: 0.33333334, z: 0.33333334, w: 0.33333334}
      - serializedVersion: 3
        time: 0.033333335
        value: {x: -0.115895994, y: -0.6978454, z: 0.22301382, w: 0.67070466}
        inSlope: {x: 0.8935639, y: 0.9462663, z: -0.46642584, w: 1.3230388}
        outSlope: {x: 0.8935639, y: 0.9462663, z: -0.46642584, w: 1.3230388}
        tangentMode: 0
        weightedMode: 0
        inWeight: {x: 0.33333334, y: 0.33333334, z: 0.33333334, w: 0.33333334}
        outWeight: {x: 0.33333334, y: 0.33333334, z: 0.33333334, w: 0.33333334}
      - serializedVersion: 3
        time: 0.06666667
        value: {x: -0.064689815, y: -0.6780602, z: 0.21977082, w: 0.6983913}
        inSlope: {x: 1.3075546, y: 0.45019084, z: -0.36577258, w: 0.6905793}
        outSlope: {x: 1.3075546, y: 0.45019084, z: -0.36577258, w: 0.6905793}
        tangentMode: 0
        weightedMode: 0
        inWeight: {x: 0.33333334, y: 0.33333334, z: 0.33333334, w: 0.33333334}
        outWeight: {x: 0.33333334, y: 0.33333334, z: 0.33333334, w: 0.33333334}
      - serializedVersion: 3
        time: 0.10000001
        value: {x: -0.028725678, y: -0.6678327, z: 0.19862898, w: 0.7167433}
        inSlope: {x: 0.8145715, y: 0.4426539, z: 0.13141042, w: 0.41384602}
        outSlope: {x: 0.8145715, y: 0.4426539, z: 0.13141042, w: 0.41384602}
        tangentMode: 0
        weightedMode: 0
        inWeight: {x: 0.33333334, y: 0.33333334, z: 0.33333334, w: 0.33333334}
        outWeight: {x: 0.33333334, y: 0.33333334, z: 0.33333334, w: 0.33333334}
      - serializedVersion: 3
        time: 0.13333334
        value: {x: -0.010385042, y: -0.6485499, z: 0.22853151, w: 0.72598106}
        inSlope: {x: 0.118481755, y: 0.5553881, z: 1.0810337, w: 0.152227}
        outSlope: {x: 0.118481755, y: 0.5553881, z: 1.0810337, w: 0.152227}
        tangentMode: 0
        weightedMode: 0
        inWeight: {x: 0.33333334, y: 0.33333334, z: 0.33333334, w: 0.33333334}
        outWeight: {x: 0.33333334, y: 0.33333334, z: 0.33333334, w: 0.33333334}
      - serializedVersion: 3
        time: 0.23333335
        value: {x: -0.06051746, y: -0.5933863, z: 0.33599243, w: 0.72893035}
        inSlope: {x: -0.31071526, y: 0.46895033, z: 0.41561145, w: 0.17539503}
        outSlope: {x: -0.31071526, y: 0.46895033, z: 0.41561145, w: 0.17539503}
        tangentMode: 0
        weightedMode: 0
        inWeight: {x: 0.33333334, y: 0.33333334, z: 0.33333334, w: 0.33333334}
        outWeight: {x: 0.33333334, y: 0.33333334, z: 0.33333334, w: 0.33333334}
      - serializedVersion: 3
        time: 0.33333334
        value: {x: -0.055430535, y: -0.5853285, z: 0.27694666, w: 0.7600122}
        inSlope: {x: 0.095691, y: -0.2725679, z: -1.1733649, w: 0.22324653}
        outSlope: {x: 0.095691, y: -0.2725679, z: -1.1733649, w: 0.22324653}
        tangentMode: 0
        weightedMode: 0
        inWeight: {x: 0.33333334, y: 0.33333334, z: 0.33333334, w: 0.33333334}
        outWeight: {x: 0.33333334, y: 0.33333334, z: 0.33333334, w: 0.33333334}
      - serializedVersion: 3
        time: 0.43333337
        value: {x: -0.063809104, y: -0.6454049, z: 0.1854488, w: 0.73823416}
        inSlope: {x: -0.33671078, y: -0.9275553, z: -0.619397, w: -0.6899304}
        outSlope: {x: -0.33671078, y: -0.9275553, z: -0.619397, w: -0.6899304}
        tangentMode: 0
        weightedMode: 0
        inWeight: {x: 0.33333334, y: 0.33333334, z: 0.33333334, w: 0.33333334}
        outWeight: {x: 0.33333334, y: 0.33333334, z: 0.33333334, w: 0.33333334}
      - serializedVersion: 3
        time: 0.5666667
        value: {x: -0.12197189, y: -0.7539626, z: 0.17889886, w: 0.62020844}
        inSlope: {x: -0.24543303, y: -0.31711295, z: 0.48813155, w: -0.56805503}
        outSlope: {x: -0.24543303, y: -0.31711295, z: 0.48813155, w: -0.56805503}
        tangentMode: 0
        weightedMode: 0
        inWeight: {x: 0.33333334, y: 0.33333334, z: 0.33333334, w: 0.33333334}
        outWeight: {x: 0.33333334, y: 0.33333334, z: 0.33333334, w: 0.33333334}
      - serializedVersion: 3
        time: 0.6666667
        value: {x: -0.13208362, y: -0.75054324, z: 0.23789017, w: 0.6022018}
        inSlope: {x: 0.043143056, y: 0.13194682, z: 0.34237695, w: 0.04074182}
        outSlope: {x: 0.043143056, y: 0.13194682, z: 0.34237695, w: 0.04074182}
        tangentMode: 0
        weightedMode: 0
        inWeight: {x: 0.33333334, y: 0.33333334, z: 0.33333334, w: 0.33333334}
        outWeight: {x: 0.33333334, y: 0.33333334, z: 0.33333334, w: 0.33333334}
      - serializedVersion: 3
        time: 0.7666667
        value: {x: -0.124278486, y: -0.7411427, z: 0.2508606, w: 0.61018974}
        inSlope: {x: 0.04955064, y: 0.044780336, z: 0.05287479, w: 0.04299756}
        outSlope: {x: 0.04955064, y: 0.044780336, z: 0.05287479, w: 0.04299756}
        tangentMode: 0
        weightedMode: 0
        inWeight: {x: 0.33333334, y: 0.33333334, z: 0.33333334, w: 0.33333334}
        outWeight: {x: 0.33333334, y: 0.33333334, z: 0.33333334, w: 0.33333334}
      m_PreInfinity: 2
      m_PostInfinity: 2
      m_RotationOrder: 4
    path: Skelet.c/root/pelvis/spine_01/spine_02/spine_03/clavicle_r/upperarm_r/lowerarm_r/hand_r
  - curve:
      serializedVersion: 2
      m_Curve:
      - serializedVersion: 3
        time: 0
        value: {x: -0.0058433334, y: 0.18877988, z: -0.1096392, w: 0.9758623}
        inSlope: {x: 0.48550558, y: 0.2420166, z: -4.2367125, w: -0.8436548}
        outSlope: {x: 0.48550558, y: 0.2420166, z: -4.2367125, w: -0.8436548}
        tangentMode: 0
        weightedMode: 0
        inWeight: {x: 0.33333334, y: 0.33333334, z: 0.33333334, w: 0.33333334}
        outWeight: {x: 0.33333334, y: 0.33333334, z: 0.33333334, w: 0.33333334}
      - serializedVersion: 3
        time: 0.033333335
        value: {x: 0.010340187, y: 0.1968471, z: -0.25086296, w: 0.9477405}
        inSlope: {x: 0.27466124, y: 0.078607276, z: -1.8418708, w: -0.3431895}
        outSlope: {x: 0.27466124, y: 0.078607276, z: -1.8418708, w: -0.3431895}
        tangentMode: 0
        weightedMode: 0
        inWeight: {x: 0.33333334, y: 0.33333334, z: 0.33333334, w: 0.33333334}
        outWeight: {x: 0.33333334, y: 0.33333334, z: 0.33333334, w: 0.33333334}
      - serializedVersion: 3
        time: 0.06666667
        value: {x: 0.012467416, y: 0.19402036, z: -0.23243059, w: 0.952983}
        inSlope: {x: 0.09235573, y: -0.122911096, z: 0.9227696, w: 0.23603526}
        outSlope: {x: 0.09235573, y: -0.122911096, z: 0.9227696, w: 0.23603526}
        tangentMode: 0
        weightedMode: 0
        inWeight: {x: 0.33333334, y: 0.33333334, z: 0.33333334, w: 0.33333334}
        outWeight: {x: 0.33333334, y: 0.33333334, z: 0.33333334, w: 0.33333334}
      - serializedVersion: 3
        time: 0.16666667
        value: {x: 0.02558228, y: 0.1810426, z: -0.110140026, w: 0.9769536}
        inSlope: {x: 0.08737586, y: -0.057804286, z: 0.7017566, w: 0.09524256}
        outSlope: {x: 0.08737586, y: -0.057804286, z: 0.7017566, w: 0.09524256}
        tangentMode: 0
        weightedMode: 0
        inWeight: {x: 0.33333334, y: 0.33333334, z: 0.33333334, w: 0.33333334}
        outWeight: {x: 0.33333334, y: 0.33333334, z: 0.33333334, w: 0.33333334}
      - serializedVersion: 3
        time: 0.26666668
        value: {x: 0.008303739, y: 0.18084133, z: -0.11268705, w: 0.97700006}
        inSlope: {x: -0.47211018, y: 0.025951494, z: -0.40501347, w: -0.04895032}
        outSlope: {x: -0.47211018, y: 0.025951494, z: -0.40501347, w: -0.04895032}
        tangentMode: 0
        weightedMode: 0
        inWeight: {x: 0.33333334, y: 0.33333334, z: 0.33333334, w: 0.33333334}
        outWeight: {x: 0.33333334, y: 0.33333334, z: 0.33333334, w: 0.33333334}
      - serializedVersion: 3
        time: 0.36666667
        value: {x: -0.031588033, y: 0.18379192, z: -0.14680225, w: 0.97142774}
        inSlope: {x: -0.11442595, y: 0.017161885, z: -0.06417166, w: -0.01595736}
        outSlope: {x: -0.11442595, y: 0.017161885, z: -0.06417166, w: -0.01595736}
        tangentMode: 0
        weightedMode: 0
        inWeight: {x: 0.33333334, y: 0.33333334, z: 0.33333334, w: 0.33333334}
        outWeight: {x: 0.33333334, y: 0.33333334, z: 0.33333334, w: 0.33333334}
      - serializedVersion: 3
        time: 0.5666667
        value: {x: -0.023126693, y: 0.19142245, z: -0.10303578, w: 0.9758106}
        inSlope: {x: 0.0687567, y: 0.015377097, z: 0.10231248, w: 0.009593365}
        outSlope: {x: 0.0687567, y: 0.015377097, z: 0.10231248, w: 0.009593365}
        tangentMode: 0
        weightedMode: 0
        inWeight: {x: 0.33333334, y: 0.33333334, z: 0.33333334, w: 0.33333334}
        outWeight: {x: 0.33333334, y: 0.33333334, z: 0.33333334, w: 0.33333334}
      - serializedVersion: 3
        time: 0.7666667
        value: {x: -0.0058258385, y: 0.18881135, z: -0.109683074, w: 0.9758514}
        inSlope: {x: 0.089324065, y: -0.018408433, z: -0.04786778, w: -0.001103281}
        outSlope: {x: 0.089324065, y: -0.018408433, z: -0.04786778, w: -0.001103281}
        tangentMode: 0
        weightedMode: 0
        inWeight: {x: 0.33333334, y: 0.33333334, z: 0.33333334, w: 0.33333334}
        outWeight: {x: 0.33333334, y: 0.33333334, z: 0.33333334, w: 0.33333334}
      m_PreInfinity: 2
      m_PostInfinity: 2
      m_RotationOrder: 4
    path: Skelet.c/root/pelvis/spine_01/spine_02/spine_03/clavicle_r/upperarm_r/lowerarm_r/hand_r/index_01_r
  - curve:
      serializedVersion: 2
      m_Curve:
      - serializedVersion: 3
        time: 0
        value: {x: 0.40855008, y: 0.58929473, z: -0.14571387, w: 0.68160546}
        inSlope: {x: -0.000076889984, y: 0.000053644177, z: -0.00008314847, w: -0.000017881392}
        outSlope: {x: -0.000076889984, y: 0.000053644177, z: -0.00008314847, w: -0.000017881392}
        tangentMode: 0
        weightedMode: 0
        inWeight: {x: 0.33333334, y: 0.33333334, z: 0.33333334, w: 0.33333334}
        outWeight: {x: 0.33333334, y: 0.33333334, z: 0.33333334, w: 0.33333334}
      - serializedVersion: 3
        time: 0.20000002
        value: {x: 0.40909302, y: 0.58910084, z: -0.14527825, w: 0.6815404}
        inSlope: {x: -0.0132823, y: -0.034385923, z: 0.1049839, w: 0.059292022}
        outSlope: {x: -0.0132823, y: -0.034385923, z: 0.1049839, w: 0.059292022}
        tangentMode: 0
        weightedMode: 0
        inWeight: {x: 0.33333334, y: 0.33333334, z: 0.33333334, w: 0.33333334}
        outWeight: {x: 0.33333334, y: 0.33333334, z: 0.33333334, w: 0.33333334}
      - serializedVersion: 3
        time: 0.3
        value: {x: 0.40221864, y: 0.5702982, z: -0.094824865, w: 0.70992136}
        inSlope: {x: -0.09417326, y: -0.2836034, z: 0.6709936, w: 0.37300768}
        outSlope: {x: -0.09417326, y: -0.2836034, z: 0.6709936, w: 0.37300768}
        tangentMode: 0
        weightedMode: 0
        inWeight: {x: 0.33333334, y: 0.33333334, z: 0.33333334, w: 0.33333334}
        outWeight: {x: 0.33333334, y: 0.33333334, z: 0.33333334, w: 0.33333334}
      - serializedVersion: 3
        time: 0.40000004
        value: {x: 0.3960504, y: 0.5572495, z: -0.065573595, w: 0.7268543}
        inSlope: {x: -0.09400873, y: 0.08097052, z: -0.1270893, w: -0.023175182}
        outSlope: {x: -0.09400873, y: 0.08097052, z: -0.1270893, w: -0.023175182}
        tangentMode: 0
        weightedMode: 0
        inWeight: {x: 0.33333334, y: 0.33333334, z: 0.33333334, w: 0.33333334}
        outWeight: {x: 0.33333334, y: 0.33333334, z: 0.33333334, w: 0.33333334}
      - serializedVersion: 3
        time: 0.6
        value: {x: 0.37961873, y: 0.5854184, z: -0.12147123, w: 0.7059884}
        inSlope: {x: 0.123869315, y: 0.057009473, z: -0.2004699, w: -0.14835298}
        outSlope: {x: 0.123869315, y: 0.057009473, z: -0.2004699, w: -0.14835298}
        tangentMode: 0
        weightedMode: 0
        inWeight: {x: 0.33333334, y: 0.33333334, z: 0.33333334, w: 0.33333334}
        outWeight: {x: 0.33333334, y: 0.33333334, z: 0.33333334, w: 0.33333334}
      - serializedVersion: 3
        time: 0.7666667
        value: {x: 0.4085382, y: 0.58934426, z: -0.14571574, w: 0.68156934}
        inSlope: {x: 0.15174407, y: 0.017772302, z: -0.12531851, w: -0.13173749}
        outSlope: {x: 0.15174407, y: 0.017772302, z: -0.12531851, w: -0.13173749}
        tangentMode: 0
        weightedMode: 0
        inWeight: {x: 0.33333334, y: 0.33333334, z: 0.33333334, w: 0.33333334}
        outWeight: {x: 0.33333334, y: 0.33333334, z: 0.33333334, w: 0.33333334}
      m_PreInfinity: 2
      m_PostInfinity: 2
      m_RotationOrder: 4
    path: Skelet.c/root/pelvis/spine_01/spine_02/spine_03/clavicle_r/upperarm_r/lowerarm_r/hand_r/thumb_01_r
  - curve:
      serializedVersion: 2
      m_Curve:
      - serializedVersion: 3
        time: 0
        value: {x: -0.03084897, y: -0.015440682, z: -0.056945633, w: 0.9977811}
        inSlope: {x: -0.1158051, y: 3.2929006, z: -5.9976306, w: -1.0972363}
        outSlope: {x: -0.1158051, y: 3.2929006, z: -5.9976306, w: -1.0972363}
        tangentMode: 0
        weightedMode: 0
        inWeight: {x: 0.33333334, y: 0.33333334, z: 0.33333334, w: 0.33333334}
        outWeight: {x: 0.33333334, y: 0.33333334, z: 0.33333334, w: 0.33333334}
      - serializedVersion: 3
        time: 0.033333335
        value: {x: -0.03470914, y: 0.094322674, z: -0.25686666, w: 0.96120656}
        inSlope: {x: -1.6945639, y: 2.3930862, z: -2.6860719, w: -0.71397364}
        outSlope: {x: -1.6945639, y: 2.3930862, z: -2.6860719, w: -0.71397364}
        tangentMode: 0
        weightedMode: 0
        inWeight: {x: 0.33333334, y: 0.33333334, z: 0.33333334, w: 0.33333334}
        outWeight: {x: 0.33333334, y: 0.33333334, z: 0.33333334, w: 0.33333334}
      - serializedVersion: 3
        time: 0.06666667
        value: {x: -0.1438199, y: 0.1440984, z: -0.23601711, w: 0.95018286}
        inSlope: {x: -3.6841319, y: 0.600595, z: 2.0702548, w: -0.27314273}
        outSlope: {x: -3.6841319, y: 0.600595, z: 2.0702548, w: -0.27314273}
        tangentMode: 0
        weightedMode: 0
        inWeight: {x: 0.33333334, y: 0.33333334, z: 0.33333334, w: 0.33333334}
        outWeight: {x: 0.33333334, y: 0.33333334, z: 0.33333334, w: 0.33333334}
      - serializedVersion: 3
        time: 0.10000001
        value: {x: -0.28031796, y: 0.13436234, z: -0.11884965, w: 0.94299704}
        inSlope: {x: -3.8219976, y: -0.6842983, z: 3.6297557, w: -0.57583004}
        outSlope: {x: -3.8219976, y: -0.6842983, z: 3.6297557, w: -0.57583004}
        tangentMode: 0
        weightedMode: 0
        inWeight: {x: 0.33333334, y: 0.33333334, z: 0.33333334, w: 0.33333334}
        outWeight: {x: 0.33333334, y: 0.33333334, z: 0.33333334, w: 0.33333334}
      - serializedVersion: 3
        time: 0.13333334
        value: {x: -0.39861977, y: 0.09847852, z: 0.00596662, w: 0.9117942}
        inSlope: {x: -2.6430833, y: -0.8728186, z: 3.1370769, w: -0.9174416}
        outSlope: {x: -2.6430833, y: -0.8728186, z: 3.1370769, w: -0.9174416}
        tangentMode: 0
        weightedMode: 0
        inWeight: {x: 0.33333334, y: 0.33333334, z: 0.33333334, w: 0.33333334}
        outWeight: {x: 0.33333334, y: 0.33333334, z: 0.33333334, w: 0.33333334}
      - serializedVersion: 3
        time: 0.16666667
        value: {x: -0.4565235, y: 0.07617444, z: 0.090288796, w: 0.88183427}
        inSlope: {x: -1.0551591, y: -0.3963784, z: 1.9162002, w: -0.626032}
        outSlope: {x: -1.0551591, y: -0.3963784, z: 1.9162002, w: -0.626032}
        tangentMode: 0
        weightedMode: 0
        inWeight: {x: 0.33333334, y: 0.33333334, z: 0.33333334, w: 0.33333334}
        outWeight: {x: 0.33333334, y: 0.33333334, z: 0.33333334, w: 0.33333334}
      - serializedVersion: 3
        time: 0.23333335
        value: {x: -0.46637103, y: 0.07156574, z: 0.15901913, w: 0.8672309}
        inSlope: {x: 0.2173868, y: -0.008692146, z: 0.57529765, w: 0.014975667}
        outSlope: {x: 0.2173868, y: -0.008692146, z: 0.57529765, w: 0.014975667}
        tangentMode: 0
        weightedMode: 0
        inWeight: {x: 0.33333334, y: 0.33333334, z: 0.33333334, w: 0.33333334}
        outWeight: {x: 0.33333334, y: 0.33333334, z: 0.33333334, w: 0.33333334}
      - serializedVersion: 3
        time: 0.43333337
        value: {x: -0.29429942, y: 0.05775707, z: 0.08847696, w: 0.9498546}
        inSlope: {x: 1.3029662, y: -0.22746548, z: -1.018263, w: 0.51134354}
        outSlope: {x: 1.3029662, y: -0.22746548, z: -1.018263, w: 0.51134354}
        tangentMode: 0
        weightedMode: 0
        inWeight: {x: 0.33333334, y: 0.33333334, z: 0.33333334, w: 0.33333334}
        outWeight: {x: 0.33333334, y: 0.33333334, z: 0.33333334, w: 0.33333334}
      - serializedVersion: 3
        time: 0.6333334
        value: {x: -0.074303865, y: -0.0063800933, z: -0.057002574, w: 0.9955847}
        inSlope: {x: 0.67841303, y: -0.19273344, z: -0.28139076, w: 0.03668546}
        outSlope: {x: 0.67841303, y: -0.19273344, z: -0.28139076, w: 0.03668546}
        tangentMode: 0
        weightedMode: 0
        inWeight: {x: 0.33333334, y: 0.33333334, z: 0.33333334, w: 0.33333334}
        outWeight: {x: 0.33333334, y: 0.33333334, z: 0.33333334, w: 0.33333334}
      - serializedVersion: 3
        time: 0.7666667
        value: {x: -0.030850977, y: -0.015442851, z: -0.056946434, w: 0.997781}
        inSlope: {x: 0.04090399, y: -0.006479401, z: 0.14435235, w: 0.009781114}
        outSlope: {x: 0.04090399, y: -0.006479401, z: 0.14435235, w: 0.009781114}
        tangentMode: 0
        weightedMode: 0
        inWeight: {x: 0.33333334, y: 0.33333334, z: 0.33333334, w: 0.33333334}
        outWeight: {x: 0.33333334, y: 0.33333334, z: 0.33333334, w: 0.33333334}
      m_PreInfinity: 2
      m_PostInfinity: 2
      m_RotationOrder: 4
    path: Skelet.c/root/pelvis/spine_01/spine_02/spine_03/neck_01
  - curve:
      serializedVersion: 2
      m_Curve:
      - serializedVersion: 3
        time: 0
        value: {x: 0.88422984, y: 0.3690902, z: 0.2150056, w: 0.18889849}
        inSlope: {x: 1.4541827, y: -4.1729164, z: 0.95091456, w: -1.83601}
        outSlope: {x: 1.4541827, y: -4.1729164, z: 0.95091456, w: -1.83601}
        tangentMode: 0
        weightedMode: 0
        inWeight: {x: 0.33333334, y: 0.33333334, z: 0.33333334, w: 0.33333334}
        outWeight: {x: 0.33333334, y: 0.33333334, z: 0.33333334, w: 0.33333334}
      - serializedVersion: 3
        time: 0.033333335
        value: {x: 0.9327026, y: 0.22999297, z: 0.24670276, w: 0.12769815}
        inSlope: {x: 0.89943403, y: -2.8465118, z: 0.49788144, w: -1.0121943}
        outSlope: {x: 0.89943403, y: -2.8465118, z: 0.49788144, w: -1.0121943}
        tangentMode: 0
        weightedMode: 0
        inWeight: {x: 0.33333334, y: 0.33333334, z: 0.33333334, w: 0.33333334}
        outWeight: {x: 0.33333334, y: 0.33333334, z: 0.33333334, w: 0.33333334}
      - serializedVersion: 3
        time: 0.06666667
        value: {x: 0.9441921, y: 0.17932272, z: 0.2481977, w: 0.12141886}
        inSlope: {x: 0.16656338, y: -0.76536655, z: -0.036060728, w: 0.069810055}
        outSlope: {x: 0.16656338, y: -0.76536655, z: -0.036060728, w: 0.069810055}
        tangentMode: 0
        weightedMode: 0
        inWeight: {x: 0.33333334, y: 0.33333334, z: 0.33333334, w: 0.33333334}
        outWeight: {x: 0.33333334, y: 0.33333334, z: 0.33333334, w: 0.33333334}
      - serializedVersion: 3
        time: 0.16666667
        value: {x: 0.9272196, y: 0.24389091, z: 0.22883452, w: 0.16856988}
        inSlope: {x: -0.3425511, y: 1.1877825, z: -0.24725784, w: 0.5056321}
        outSlope: {x: -0.3425511, y: 1.1877825, z: -0.24725784, w: 0.5056321}
        tangentMode: 0
        weightedMode: 0
        inWeight: {x: 0.33333334, y: 0.33333334, z: 0.33333334, w: 0.33333334}
        outWeight: {x: 0.33333334, y: 0.33333334, z: 0.33333334, w: 0.33333334}
      - serializedVersion: 3
        time: 0.43333337
        value: {x: 0.8588184, y: 0.4205645, z: 0.20894285, w: 0.20469324}
        inSlope: {x: -0.027126076, y: 0.036616627, z: -0.030576292, w: 0.07028908}
        outSlope: {x: -0.027126076, y: 0.036616627, z: -0.030576292, w: 0.07028908}
        tangentMode: 0
        weightedMode: 0
        inWeight: {x: 0.33333334, y: 0.33333334, z: 0.33333334, w: 0.33333334}
        outWeight: {x: 0.33333334, y: 0.33333334, z: 0.33333334, w: 0.33333334}
      - serializedVersion: 3
        time: 0.6666667
        value: {x: 0.87919015, y: 0.3795867, z: 0.21288997, w: 0.19395004}
        inSlope: {x: 0.0842929, y: -0.16371043, z: 0.035503514, w: -0.10004999}
        outSlope: {x: 0.0842929, y: -0.16371043, z: 0.035503514, w: -0.10004999}
        tangentMode: 0
        weightedMode: 0
        inWeight: {x: 0.33333334, y: 0.33333334, z: 0.33333334, w: 0.33333334}
        outWeight: {x: 0.33333334, y: 0.33333334, z: 0.33333334, w: 0.33333334}
      - serializedVersion: 3
        time: 0.7666667
        value: {x: 0.8842381, y: 0.3690915, z: 0.21497789, w: 0.1888887}
        inSlope: {x: 0.021961909, y: -0.052163556, z: 0.0076107616, w: -0.009248249}
        outSlope: {x: 0.021961909, y: -0.052163556, z: 0.0076107616, w: -0.009248249}
        tangentMode: 0
        weightedMode: 0
        inWeight: {x: 0.33333334, y: 0.33333334, z: 0.33333334, w: 0.33333334}
        outWeight: {x: 0.33333334, y: 0.33333334, z: 0.33333334, w: 0.33333334}
      m_PreInfinity: 2
      m_PostInfinity: 2
      m_RotationOrder: 4
    path: Skelet.c/root/pelvis/thigh_l
  - curve:
      serializedVersion: 2
      m_Curve:
      - serializedVersion: 3
        time: 0
        value: {x: 0.018932033, y: -0.114275806, z: 0.49854994, w: 0.8590871}
        inSlope: {x: 0.0185886, y: -0.3356572, z: -0.55208176, w: 0.26585162}
        outSlope: {x: 0.0185886, y: -0.3356572, z: -0.55208176, w: 0.26585162}
        tangentMode: 0
        weightedMode: 0
        inWeight: {x: 0.33333334, y: 0.33333334, z: 0.33333334, w: 0.33333334}
        outWeight: {x: 0.33333334, y: 0.33333334, z: 0.33333334, w: 0.33333334}
      - serializedVersion: 3
        time: 0.033333335
        value: {x: 0.019551653, y: -0.12546438, z: 0.4801472, w: 0.86794883}
        inSlope: {x: -0.029057931, y: 0.020301417, z: -0.009389073, w: 0.00873328}
        outSlope: {x: -0.029057931, y: 0.020301417, z: -0.009389073, w: 0.00873328}
        tangentMode: 0
        weightedMode: 0
        inWeight: {x: 0.33333334, y: 0.33333334, z: 0.33333334, w: 0.33333334}
        outWeight: {x: 0.33333334, y: 0.33333334, z: 0.33333334, w: 0.33333334}
      - serializedVersion: 3
        time: 0.06666667
        value: {x: 0.016994838, y: -0.11292238, z: 0.497924, w: 0.8596693}
        inSlope: {x: -0.15439433, y: 0.52115273, z: 0.5460838, w: -0.24845031}
        outSlope: {x: -0.15439433, y: 0.52115273, z: 0.5460838, w: -0.24845031}
        tangentMode: 0
        weightedMode: 0
        inWeight: {x: 0.33333334, y: 0.33333334, z: 0.33333334, w: 0.33333334}
        outWeight: {x: 0.33333334, y: 0.33333334, z: 0.33333334, w: 0.33333334}
      - serializedVersion: 3
        time: 0.13333334
        value: {x: 0.007012581, y: -0.08548394, z: 0.52884847, w: 0.84437114}
        inSlope: {x: 0.014885843, y: -0.033511855, z: 0.22103728, w: -0.14057995}
        outSlope: {x: 0.014885843, y: -0.033511855, z: 0.22103728, w: -0.14057995}
        tangentMode: 0
        weightedMode: 0
        inWeight: {x: 0.33333334, y: 0.33333334, z: 0.33333334, w: 0.33333334}
        outWeight: {x: 0.33333334, y: 0.33333334, z: 0.33333334, w: 0.33333334}
      - serializedVersion: 3
        time: 0.26666668
        value: {x: 0.022465168, y: -0.1274733, z: 0.5219571, w: 0.8430936}
        inSlope: {x: 0.050931074, y: -0.316269, z: -0.049180094, w: -0.017850103}
        outSlope: {x: 0.050931074, y: -0.316269, z: -0.049180094, w: -0.017850103}
        tangentMode: 0
        weightedMode: 0
        inWeight: {x: 0.33333334, y: 0.33333334, z: 0.33333334, w: 0.33333334}
        outWeight: {x: 0.33333334, y: 0.33333334, z: 0.33333334, w: 0.33333334}
      - serializedVersion: 3
        time: 0.5
        value: {x: 0.023215402, y: -0.14242294, z: 0.50175047, w: 0.8528911}
        inSlope: {x: -0.029406786, y: 0.12845904, z: -0.015241218, w: 0.031130617}
        outSlope: {x: -0.029406786, y: 0.12845904, z: -0.015241218, w: 0.031130617}
        tangentMode: 0
        weightedMode: 0
        inWeight: {x: 0.33333334, y: 0.33333334, z: 0.33333334, w: 0.33333334}
        outWeight: {x: 0.33333334, y: 0.33333334, z: 0.33333334, w: 0.33333334}
      - serializedVersion: 3
        time: 0.6333334
        value: {x: 0.021373454, y: -0.12757105, z: 0.5019179, w: 0.8551884}
        inSlope: {x: -0.027199997, y: 0.14370358, z: -0.0070282863, w: 0.026354492}
        outSlope: {x: -0.027199997, y: 0.14370358, z: -0.0070282863, w: 0.026354492}
        tangentMode: 0
        weightedMode: 0
        inWeight: {x: 0.33333334, y: 0.33333334, z: 0.33333334, w: 0.33333334}
        outWeight: {x: 0.33333334, y: 0.33333334, z: 0.33333334, w: 0.33333334}
      - serializedVersion: 3
        time: 0.7666667
        value: {x: 0.018932046, y: -0.11427586, z: 0.49855217, w: 0.85908574}
        inSlope: {x: -0.024479384, y: 0.08209609, z: -0.018092379, w: 0.022115689}
        outSlope: {x: -0.024479384, y: 0.08209609, z: -0.018092379, w: 0.022115689}
        tangentMode: 0
        weightedMode: 0
        inWeight: {x: 0.33333334, y: 0.33333334, z: 0.33333334, w: 0.33333334}
        outWeight: {x: 0.33333334, y: 0.33333334, z: 0.33333334, w: 0.33333334}
      m_PreInfinity: 2
      m_PostInfinity: 2
      m_RotationOrder: 4
    path: Skelet.c/root/pelvis/thigh_l/calf_l
  - curve:
      serializedVersion: 2
      m_Curve:
      - serializedVersion: 3
        time: 0
        value: {x: 0.28004086, y: -0.26230547, z: 0.879139, w: -0.28264394}
        inSlope: {x: -1.2505101, y: -4.1517453, z: -0.8278101, w: 1.2856771}
        outSlope: {x: -1.2505101, y: -4.1517453, z: -0.8278101, w: 1.2856771}
        tangentMode: 0
        weightedMode: 0
        inWeight: {x: 0.33333334, y: 0.33333334, z: 0.33333334, w: 0.33333334}
        outWeight: {x: 0.33333334, y: 0.33333334, z: 0.33333334, w: 0.33333334}
      - serializedVersion: 3
        time: 0.033333335
        value: {x: 0.23835719, y: -0.400697, z: 0.85154533, w: -0.23978804}
        inSlope: {x: -1.0431237, y: -2.6146154, z: -0.6892749, w: 0.24678513}
        outSlope: {x: -1.0431237, y: -2.6146154, z: -0.6892749, w: 0.24678513}
        tangentMode: 0
        weightedMode: 0
        inWeight: {x: 0.33333334, y: 0.33333334, z: 0.33333334, w: 0.33333334}
        outWeight: {x: 0.33333334, y: 0.33333334, z: 0.33333334, w: 0.33333334}
      - serializedVersion: 3
        time: 0.06666667
        value: {x: 0.21049927, y: -0.43661317, z: 0.83318734, w: -0.2661916}
        inSlope: {x: -0.5429461, y: -0.3911233, z: -0.36948055, w: -0.9827548}
        outSlope: {x: -0.5429461, y: -0.3911233, z: -0.36948055, w: -0.9827548}
        tangentMode: 0
        weightedMode: 0
        inWeight: {x: 0.33333334, y: 0.33333334, z: 0.33333334, w: 0.33333334}
        outWeight: {x: 0.33333334, y: 0.33333334, z: 0.33333334, w: 0.33333334}
      - serializedVersion: 3
        time: 0.10000001
        value: {x: 0.20216078, y: -0.42677188, z: 0.8269133, w: -0.30530503}
        inSlope: {x: -0.046773233, y: 0.50182074, z: -0.044538956, w: -0.8721774}
        outSlope: {x: -0.046773233, y: 0.50182074, z: -0.044538956, w: -0.8721774}
        tangentMode: 0
        weightedMode: 0
        inWeight: {x: 0.33333334, y: 0.33333334, z: 0.33333334, w: 0.33333334}
        outWeight: {x: 0.33333334, y: 0.33333334, z: 0.33333334, w: 0.33333334}
      - serializedVersion: 3
        time: 0.23333335
        value: {x: 0.24827752, y: -0.31962523, z: 0.85493314, w: -0.3244801}
        inSlope: {x: 0.321248, y: 0.65341836, z: 0.17969103, w: 0.06783799}
        outSlope: {x: 0.321248, y: 0.65341836, z: 0.17969103, w: 0.06783799}
        tangentMode: 0
        weightedMode: 0
        inWeight: {x: 0.33333334, y: 0.33333334, z: 0.33333334, w: 0.33333334}
        outWeight: {x: 0.33333334, y: 0.33333334, z: 0.33333334, w: 0.33333334}
      - serializedVersion: 3
        time: 0.43333337
        value: {x: 0.29090866, y: -0.24044506, z: 0.8788964, w: -0.2917182}
        inSlope: {x: 0.12494357, y: 0.21123248, z: 0.085182495, w: 0.20554484}
        outSlope: {x: 0.12494357, y: 0.21123248, z: 0.085182495, w: 0.20554484}
        tangentMode: 0
        weightedMode: 0
        inWeight: {x: 0.33333334, y: 0.33333334, z: 0.33333334, w: 0.33333334}
        outWeight: {x: 0.33333334, y: 0.33333334, z: 0.33333334, w: 0.33333334}
      - serializedVersion: 3
        time: 0.73333335
        value: {x: 0.28106946, y: -0.261899, z: 0.87982607, w: -0.2798481}
        inSlope: {x: -0.0384231, y: -0.04192564, z: -0.020313263, w: -0.06324066}
        outSlope: {x: -0.0384231, y: -0.04192564, z: -0.020313263, w: -0.06324066}
        tangentMode: 0
        weightedMode: 0
        inWeight: {x: 0.33333334, y: 0.33333334, z: 0.33333334, w: 0.33333334}
        outWeight: {x: 0.33333334, y: 0.33333334, z: 0.33333334, w: 0.33333334}
      - serializedVersion: 3
        time: 0.7666667
        value: {x: 0.2800196, y: -0.26230225, z: 0.8791484, w: -0.28263864}
        inSlope: {x: -0.031495366, y: -0.0120976465, z: -0.02032934, w: -0.08371615}
        outSlope: {x: -0.031495366, y: -0.0120976465, z: -0.02032934, w: -0.08371615}
        tangentMode: 0
        weightedMode: 0
        inWeight: {x: 0.33333334, y: 0.33333334, z: 0.33333334, w: 0.33333334}
        outWeight: {x: 0.33333334, y: 0.33333334, z: 0.33333334, w: 0.33333334}
      m_PreInfinity: 2
      m_PostInfinity: 2
      m_RotationOrder: 4
    path: Skelet.c/root/pelvis/thigh_r
  - curve:
      serializedVersion: 2
      m_Curve:
      - serializedVersion: 3
        time: 0
        value: {x: -0.008602994, y: 0.100574665, z: -0.49509954, w: 0.8629526}
        inSlope: {x: 0.14460413, y: 0.7998215, z: -1.8162076, w: -1.239944}
        outSlope: {x: 0.14460413, y: 0.7998215, z: -1.8162076, w: -1.239944}
        tangentMode: 0
        weightedMode: 0
        inWeight: {x: 0.33333334, y: 0.33333334, z: 0.33333334, w: 0.33333334}
        outWeight: {x: 0.33333334, y: 0.33333334, z: 0.33333334, w: 0.33333334}
      - serializedVersion: 3
        time: 0.033333335
        value: {x: -0.0037828558, y: 0.12723538, z: -0.5556398, w: 0.8216211}
        inSlope: {x: 0.18804948, y: 0.7335031, z: -1.3700097, w: -1.0031434}
        outSlope: {x: 0.18804948, y: 0.7335031, z: -1.3700097, w: -1.0031434}
        tangentMode: 0
        weightedMode: 0
        inWeight: {x: 0.33333334, y: 0.33333334, z: 0.33333334, w: 0.33333334}
        outWeight: {x: 0.33333334, y: 0.33333334, z: 0.33333334, w: 0.33333334}
      - serializedVersion: 3
        time: 0.10000001
        value: {x: 0.0064622764, y: 0.16000418, z: -0.60633576, w: 0.7789184}
        inSlope: {x: -0.0023124702, y: 0.12914431, z: -0.4934969, w: -0.40555805}
        outSlope: {x: -0.0023124702, y: 0.12914431, z: -0.4934969, w: -0.40555805}
        tangentMode: 0
        weightedMode: 0
        inWeight: {x: 0.33333334, y: 0.33333334, z: 0.33333334, w: 0.33333334}
        outWeight: {x: 0.33333334, y: 0.33333334, z: 0.33333334, w: 0.33333334}
      - serializedVersion: 3
        time: 0.23333335
        value: {x: -0.0147543205, y: 0.11839554, z: -0.6227474, w: 0.7732726}
        inSlope: {x: -0.119339675, y: -0.31812197, z: 0.12658955, w: 0.14926316}
        outSlope: {x: -0.119339675, y: -0.31812197, z: 0.12658955, w: 0.14926316}
        tangentMode: 0
        weightedMode: 0
        inWeight: {x: 0.33333334, y: 0.33333334, z: 0.33333334, w: 0.33333334}
        outWeight: {x: 0.33333334, y: 0.33333334, z: 0.33333334, w: 0.33333334}
      - serializedVersion: 3
        time: 0.33333334
        value: {x: -0.022038229, y: 0.08973474, z: -0.59716976, w: 0.7967749}
        inSlope: {x: -0.07910776, y: -0.36458933, z: 0.3539488, w: 0.30407313}
        outSlope: {x: -0.07910776, y: -0.36458933, z: 0.3539488, w: 0.30407313}
        tangentMode: 0
        weightedMode: 0
        inWeight: {x: 0.33333334, y: 0.33333334, z: 0.33333334, w: 0.33333334}
        outWeight: {x: 0.33333334, y: 0.33333334, z: 0.33333334, w: 0.33333334}
      - serializedVersion: 3
        time: 0.5
        value: {x: -0.017672112, y: 0.07918593, z: -0.5300037, w: 0.84410506}
        inSlope: {x: 0.01684325, y: -0.03218068, z: 0.3144533, w: 0.20135525}
        outSlope: {x: 0.01684325, y: -0.03218068, z: 0.3144533, w: 0.20135525}
        tangentMode: 0
        weightedMode: 0
        inWeight: {x: 0.33333334, y: 0.33333334, z: 0.33333334, w: 0.33333334}
        outWeight: {x: 0.33333334, y: 0.33333334, z: 0.33333334, w: 0.33333334}
      - serializedVersion: 3
        time: 0.73333335
        value: {x: -0.009072711, y: 0.098851666, z: -0.49468306, w: 0.8633856}
        inSlope: {x: 0.016608577, y: 0.05447936, z: 0.008677859, w: -0.0010755551}
        outSlope: {x: 0.016608577, y: 0.05447936, z: 0.008677859, w: -0.0010755551}
        tangentMode: 0
        weightedMode: 0
        inWeight: {x: 0.33333334, y: 0.33333334, z: 0.33333334, w: 0.33333334}
        outWeight: {x: 0.33333334, y: 0.33333334, z: 0.33333334, w: 0.33333334}
      - serializedVersion: 3
        time: 0.7666667
        value: {x: -0.008609502, y: 0.10055422, z: -0.4950982, w: 0.8629557}
        inSlope: {x: 0.013896262, y: 0.051076595, z: -0.01245438, w: -0.012897838}
        outSlope: {x: 0.013896262, y: 0.051076595, z: -0.01245438, w: -0.012897838}
        tangentMode: 0
        weightedMode: 0
        inWeight: {x: 0.33333334, y: 0.33333334, z: 0.33333334, w: 0.33333334}
        outWeight: {x: 0.33333334, y: 0.33333334, z: 0.33333334, w: 0.33333334}
      m_PreInfinity: 2
      m_PostInfinity: 2
      m_RotationOrder: 4
    path: Skelet.c/root/pelvis/thigh_r/calf_r
  m_CompressedRotationCurves: []
  m_EulerCurves: []
  m_PositionCurves:
  - curve:
      serializedVersion: 2
      m_Curve:
      - serializedVersion: 3
        time: 0
        value: {x: 0.05522103, y: -0.104471594, z: 0.011073715}
        inSlope: {x: -2.1459565, y: 0.23774502, z: -4.9834466}
        outSlope: {x: -2.1459565, y: 0.23774502, z: -4.9834466}
        tangentMode: 0
        weightedMode: 0
        inWeight: {x: 0.33333334, y: 0.33333334, z: 0.33333334}
        outWeight: {x: 0.33333334, y: 0.33333334, z: 0.33333334}
      - serializedVersion: 3
        time: 0.033333335
        value: {x: -0.016310884, y: -0.09654673, z: -0.15504117}
        inSlope: {x: -1.5788149, y: 0.16983405, z: -3.1699553}
        outSlope: {x: -1.5788157, y: 0.16983359, z: -3.1699517}
        tangentMode: 0
        weightedMode: 0
        inWeight: {x: 0.33333334, y: 0.33333334, z: 0.33333334}
        outWeight: {x: 0.33333334, y: 0.33333334, z: 0.33333334}
      - serializedVersion: 3
        time: 0.06666667
        value: {x: -0.050033357, y: -0.093149364, z: -0.20025653}
        inSlope: {x: -0.5749307, y: -0.09983378, z: -0.5544299}
        outSlope: {x: -0.5749312, y: -0.0998331, z: -0.55443215}
        tangentMode: 0
        weightedMode: 0
        inWeight: {x: 0.33333334, y: 0.33333334, z: 0.33333334}
        outWeight: {x: 0.33333334, y: 0.33333334, z: 0.33333334}
      - serializedVersion: 3
        time: 0.1
        value: {x: -0.054639615, y: -0.10320231, z: -0.19200328}
        inSlope: {x: 0.08007649, y: -0.339712, z: 0.5472789}
        outSlope: {x: 0.080076106, y: -0.339712, z: 0.5472772}
        tangentMode: 0
        weightedMode: 0
        inWeight: {x: 0.33333334, y: 0.33333334, z: 0.33333334}
        outWeight: {x: 0.33333334, y: 0.33333334, z: 0.33333334}
      - serializedVersion: 3
        time: 0.13333334
        value: {x: -0.04469495, y: -0.11579692, z: -0.16377123}
        inSlope: {x: 0.43620315, y: -0.33467326, z: 1.0157568}
        outSlope: {x: 0.43620437, y: -0.33467382, z: 1.0157576}
        tangentMode: 0
        weightedMode: 0
        inWeight: {x: 0.33333334, y: 0.33333334, z: 0.33333334}
        outWeight: {x: 0.33333334, y: 0.33333334, z: 0.33333334}
      - serializedVersion: 3
        time: 0.16666667
        value: {x: -0.025559403, y: -0.12551385, z: -0.12428619}
        inSlope: {x: 0.566382, y: -0.23043807, z: 1.2022542}
        outSlope: {x: 0.5663824, y: -0.23044014, z: 1.2022548}
        tangentMode: 0
        weightedMode: 0
        inWeight: {x: 0.33333334, y: 0.33333334, z: 0.33333334}
        outWeight: {x: 0.33333334, y: 0.33333334, z: 0.33333334}
      - serializedVersion: 3
        time: 0.2
        value: {x: -0.0069362186, y: -0.13115951, z: -0.083621055}
        inSlope: {x: 0.5091283, y: -0.12949967, z: 1.1359627}
        outSlope: {x: 0.509128, y: -0.12950173, z: 1.1359638}
        tangentMode: 0
        weightedMode: 0
        inWeight: {x: 0.33333334, y: 0.33333334, z: 0.33333334}
        outWeight: {x: 0.33333334, y: 0.33333334, z: 0.33333334}
      - serializedVersion: 3
        time: 0.23333333
        value: {x: 0.008382386, y: -0.1341472, z: -0.048555486}
        inSlope: {x: 0.42063, y: -0.057529118, z: 0.92733365}
        outSlope: {x: 0.42062792, y: -0.05752761, z: 0.9273287}
        tangentMode: 0
        weightedMode: 0
        inWeight: {x: 0.33333334, y: 0.33333334, z: 0.33333334}
        outWeight: {x: 0.33333334, y: 0.33333334, z: 0.33333334}
      - serializedVersion: 3
        time: 0.26666668
        value: {x: 0.021105707, y: -0.13499478, z: -0.021799006}
        inSlope: {x: 0.3354347, y: -0.0013630271, z: 0.7354077}
        outSlope: {x: 0.33543596, y: -0.0013642467, z: 0.7354104}
        tangentMode: 0
        weightedMode: 0
        inWeight: {x: 0.33333334, y: 0.33333334, z: 0.33333334}
        outWeight: {x: 0.33333334, y: 0.33333334, z: 0.33333334}
      - serializedVersion: 3
        time: 0.3
        value: {x: 0.030744828, y: -0.13423812, z: 0.00047197938}
        inSlope: {x: 0.24899457, y: 0.043848008, z: 0.6289598}
        outSlope: {x: 0.24899575, y: 0.04384913, z: 0.6289623}
        tangentMode: 0
        weightedMode: 0
        inWeight: {x: 0.33333334, y: 0.33333334, z: 0.33333334}
        outWeight: {x: 0.33333334, y: 0.33333334, z: 0.33333334}
      - serializedVersion: 3
        time: 0.33333334
        value: {x: 0.03770546, y: -0.13207155, z: 0.020131871}
        inSlope: {x: 0.17551121, y: 0.08125105, z: 0.55155706}
        outSlope: {x: 0.1755121, y: 0.081252195, z: 0.55155855}
        tangentMode: 0
        weightedMode: 0
        inWeight: {x: 0.33333334, y: 0.33333334, z: 0.33333334}
        outWeight: {x: 0.33333334, y: 0.33333334, z: 0.33333334}
      - serializedVersion: 3
        time: 0.36666667
        value: {x: 0.04244566, y: -0.12882131, z: 0.0372426}
        inSlope: {x: 0.10449903, y: 0.109675094, z: 0.46279606}
        outSlope: {x: 0.10449887, y: 0.10967488, z: 0.46279615}
        tangentMode: 0
        weightedMode: 0
        inWeight: {x: 0.33333334, y: 0.33333334, z: 0.33333334}
        outWeight: {x: 0.33333334, y: 0.33333334, z: 0.33333334}
      - serializedVersion: 3
        time: 0.4
        value: {x: 0.044672087, y: -0.12475985, z: 0.050985046}
        inSlope: {x: 0.029989868, y: 0.123102956, z: 0.3229131}
        outSlope: {x: 0.029990867, y: 0.12310252, z: 0.32291377}
        tangentMode: 0
        weightedMode: 0
        inWeight: {x: 0.33333334, y: 0.33333334, z: 0.33333334}
        outWeight: {x: 0.33333334, y: 0.33333334, z: 0.33333334}
      - serializedVersion: 3
        time: 0.43333334
        value: {x: 0.044445004, y: -0.1206145, z: 0.05877022}
        inSlope: {x: -0.010859603, y: 0.121425085, z: 0.17692976}
        outSlope: {x: -0.010859502, y: 0.121423095, z: 0.17693123}
        tangentMode: 0
        weightedMode: 0
        inWeight: {x: 0.33333334, y: 0.33333334, z: 0.33333334}
        outWeight: {x: 0.33333334, y: 0.33333334, z: 0.33333334}
      - serializedVersion: 3
        time: 0.46666667
        value: {x: 0.043948077, y: -0.11666489, z: 0.06278042}
        inSlope: {x: -0.009426329, y: 0.104192026, z: 0.026502946}
        outSlope: {x: -0.009426389, y: 0.10419197, z: 0.026502747}
        tangentMode: 0
        weightedMode: 0
        inWeight: {x: 0.33333334, y: 0.33333334, z: 0.33333334}
        outWeight: {x: 0.33333334, y: 0.33333334, z: 0.33333334}
      - serializedVersion: 3
        time: 0.53333336
        value: {x: 0.044298623, y: -0.111356884, z: 0.05447633}
        inSlope: {x: 0.02649673, y: 0.061573677, z: -0.20427407}
        outSlope: {x: 0.026496695, y: 0.061576385, z: -0.20427774}
        tangentMode: 0
        weightedMode: 0
        inWeight: {x: 0.33333334, y: 0.33333334, z: 0.33333334}
        outWeight: {x: 0.33333334, y: 0.33333334, z: 0.33333334}
      - serializedVersion: 3
        time: 0.6666667
        value: {x: 0.05091402, y: -0.10614866, z: 0.02216657}
        inSlope: {x: 0.043310184, y: 0.025355238, z: -0.20750336}
        outSlope: {x: 0.043310877, y: 0.0253554, z: -0.20750684}
        tangentMode: 0
        weightedMode: 0
        inWeight: {x: 0.33333334, y: 0.33333334, z: 0.33333334}
        outWeight: {x: 0.33333334, y: 0.33333334, z: 0.33333334}
      - serializedVersion: 3
        time: 0.73333335
        value: {x: 0.05365022, y: -0.10473773, z: 0.01222795}
        inSlope: {x: 0.04428135, y: 0.012846788, z: -0.07485772}
        outSlope: {x: 0.04428223, y: 0.012847516, z: -0.07485859}
        tangentMode: 0
        weightedMode: 0
        inWeight: {x: 0.33333334, y: 0.33333334, z: 0.33333334}
        outWeight: {x: 0.33333334, y: 0.33333334, z: 0.33333334}
      - serializedVersion: 3
        time: 0.76666665
        value: {x: 0.055219695, y: -0.104471564, z: 0.01107437}
        inSlope: {x: 0.047084715, y: 0.0079854755, z: -0.03460733}
        outSlope: {x: 0.047084715, y: 0.0079854755, z: -0.03460733}
        tangentMode: 0
        weightedMode: 0
        inWeight: {x: 0.33333334, y: 0.33333334, z: 0.33333334}
        outWeight: {x: 0.33333334, y: 0.33333334, z: 0.33333334}
      m_PreInfinity: 2
      m_PostInfinity: 2
      m_RotationOrder: 4
    path: Skelet.c
  m_ScaleCurves: []
  m_FloatCurves: []
  m_PPtrCurves: []
  m_SampleRate: 30
  m_WrapMode: 0
  m_Bounds:
    m_Center: {x: 0, y: 0, z: 0}
    m_Extent: {x: 0, y: 0, z: 0}
  m_ClipBindingConstant:
    genericBindings: []
    pptrCurveMapping: []
  m_AnimationClipSettings:
    serializedVersion: 2
    m_AdditiveReferencePoseClip: {fileID: 0}
    m_AdditiveReferencePoseTime: 0
    m_StartTime: 0
    m_StopTime: 0.7666667
    m_OrientationOffsetY: 0
    m_Level: 0
    m_CycleOffset: 0
    m_HasAdditiveReferencePose: 0
    m_LoopTime: 0
    m_LoopBlend: 0
    m_LoopBlendOrientation: 0
    m_LoopBlendPositionY: 0
    m_LoopBlendPositionXZ: 0
    m_KeepOriginalOrientation: 0
    m_KeepOriginalPositionY: 1
    m_KeepOriginalPositionXZ: 0
    m_HeightFromFeet: 0
    m_Mirror: 0
  m_EditorCurves: []
  m_EulerEditorCurves: []
  m_HasGenericRootTransform: 0
  m_HasMotionFloatCurves: 0
  m_Events: []
